10.174.18.221 - - [16/Mar/2020:06:02:36 +0000] "GET /Reports/Smoke_Report/Smoke_Reportanalysis.html HTTP/1.1" 200 19847
10.174.18.221 - - [16/Mar/2020:06:02:37 +0000] "GET /favicon.ico HTTP/1.1" 200 21630
10.174.18.221 - - [16/Mar/2020:06:03:35 +0000] "GET /Reports/execution_reports/16-03-2020/05/ST3_WEB_FCMC_DESKTOP_chrome.html HTTP/1.1" 200 40105
10.174.18.221 - - [16/Mar/2020:06:03:35 +0000] "GET /Reports/execution_reports/16-03-2020/05/images/2020-03-16_05_28_42.188.png HTTP/1.1" 200 474894
10.174.18.221 - - [16/Mar/2020:06:03:35 +0000] "GET /Reports/execution_reports/16-03-2020/05/images/2020-03-16_05_30_18.49.png HTTP/1.1" 200 474894
10.174.18.221 - - [16/Mar/2020:06:03:44 +0000] "GET /Reports/execution_reports/16-03-2020/05/ST3_WEB_THMC_DESKTOP_chrome.html HTTP/1.1" 200 61437
10.174.18.221 - - [16/Mar/2020:06:03:45 +0000] "GET /Reports/execution_reports/16-03-2020/05/images/2020-03-16_05_34_15.809.png HTTP/1.1" 200 44910
10.174.18.221 - - [16/Mar/2020:06:03:45 +0000] "GET /Reports/execution_reports/16-03-2020/05/images/2020-03-16_05_35_03.515.png HTTP/1.1" 200 44910
10.174.18.221 - - [16/Mar/2020:06:03:45 +0000] "GET /Reports/execution_reports/16-03-2020/05/images/2020-03-16_05_35_51.39.png HTTP/1.1" 200 44910
10.174.18.221 - - [16/Mar/2020:06:03:45 +0000] "GET /Reports/execution_reports/16-03-2020/05/images/2020-03-16_05_36_39.391.png HTTP/1.1" 200 44910
10.174.18.221 - - [16/Mar/2020:06:03:45 +0000] "GET /Reports/execution_reports/16-03-2020/05/images/2020-03-16_05_37_26.687.png HTTP/1.1" 200 44910
10.174.18.221 - - [16/Mar/2020:06:03:45 +0000] "GET /Reports/execution_reports/16-03-2020/05/images/2020-03-16_05_38_32.968.png HTTP/1.1" 200 44910
10.174.18.221 - - [16/Mar/2020:06:05:50 +0000] "GET /Reports/execution_reports/16-03-2020/05/ST3_CD_chrome.html HTTP/1.1" 200 46906
10.174.18.221 - - [16/Mar/2020:06:05:50 +0000] "GET /Reports/execution_reports/16-03-2020/05/images/2020-03-16_05_31_10.903.png HTTP/1.1" 200 11610
10.174.18.221 - - [16/Mar/2020:06:06:06 +0000] "GET /Reports/execution_reports/16-03-2020/05/ST3_CR_chrome.html HTTP/1.1" 200 54826
10.174.18.221 - - [16/Mar/2020:06:06:06 +0000] "GET /Reports/execution_reports/16-03-2020/05/images/2020-03-16_05_33_52.984.png HTTP/1.1" 200 42916
10.174.18.221 - - [16/Mar/2020:06:06:06 +0000] "GET /Reports/execution_reports/16-03-2020/05/images/2020-03-16_05_34_40.968.png HTTP/1.1" 200 42916
10.174.18.221 - - [16/Mar/2020:06:06:06 +0000] "GET /Reports/execution_reports/16-03-2020/05/images/2020-03-16_05_35_28.703.png HTTP/1.1" 200 42916
10.174.18.221 - - [16/Mar/2020:06:06:06 +0000] "GET /Reports/execution_reports/16-03-2020/05/images/2020-03-16_05_36_16.749.png HTTP/1.1" 200 42916
10.174.18.221 - - [16/Mar/2020:06:06:06 +0000] "GET /Reports/execution_reports/16-03-2020/05/images/2020-03-16_05_37_04.281.png HTTP/1.1" 200 42916
10.174.18.221 - - [16/Mar/2020:06:06:15 +0000] "GET /Reports/execution_reports/16-03-2020/05/ST3_Denmark_Flightonly_chrome.html HTTP/1.1" 200 43524
10.174.18.221 - - [16/Mar/2020:06:06:22 +0000] "GET /Reports/execution_reports/16-03-2020/05/ST3_Falcon_chrome.html HTTP/1.1" 200 46329
10.174.18.221 - - [16/Mar/2020:06:06:22 +0000] "GET /Reports/execution_reports/16-03-2020/05/images/2020-03-16_05_29_24.542.png HTTP/1.1" 200 69026
10.174.18.221 - - [16/Mar/2020:06:06:22 +0000] "GET /Reports/execution_reports/16-03-2020/05/images/2020-03-16_05_30_07.833.png HTTP/1.1" 200 69026
10.174.18.221 - - [16/Mar/2020:06:06:29 +0000] "GET /Reports/execution_reports/16-03-2020/05/ST3_Finland_Flightonly_chrome.html HTTP/1.1" 200 44406
10.174.18.221 - - [16/Mar/2020:06:22:29 +0000] "GET /Reports/execution_reports/16-03-2020/05/ST3_IEFO_Web_TwoWay_Smoke_chrome.html HTTP/1.1" 200 51174
10.174.18.221 - - [16/Mar/2020:06:22:29 +0000] "GET /Reports/execution_reports/16-03-2020/05/images/2020-03-16_05_30_18.322.png HTTP/1.1" 200 178346
10.174.18.221 - - [16/Mar/2020:06:22:29 +0000] "GET /Reports/execution_reports/16-03-2020/05/images/2020-03-16_05_32_02.593.png HTTP/1.1" 200 178346
10.174.18.221 - - [16/Mar/2020:06:22:29 +0000] "GET /Reports/execution_reports/16-03-2020/05/images/2020-03-16_05_33_43.968.png HTTP/1.1" 200 178346
10.174.18.221 - - [16/Mar/2020:06:22:29 +0000] "GET /Reports/execution_reports/16-03-2020/05/images/2020-03-16_05_34_52.327.png HTTP/1.1" 200 178346
10.174.18.221 - - [16/Mar/2020:06:22:48 +0000] "GET /Reports/execution_reports/16-03-2020/05/ST3_Denmark_Flightonly_chrome.html HTTP/1.1" 304 -
10.174.18.221 - - [16/Mar/2020:06:22:56 +0000] "GET /Reports/execution_reports/16-03-2020/05/ST3_Finland_Flightonly_chrome.html HTTP/1.1" 304 -
10.174.18.221 - - [16/Mar/2020:06:23:03 +0000] "GET /Reports/execution_reports/16-03-2020/05/ST3_Sweden_Flightonly_chrome.html HTTP/1.1" 200 45360
10.174.18.221 - - [16/Mar/2020:06:23:13 +0000] "GET /Reports/execution_reports/16-03-2020/05/ST3_TUIUK_chrome.html HTTP/1.1" 200 55661
10.174.18.221 - - [16/Mar/2020:06:23:13 +0000] "GET /Reports/execution_reports/16-03-2020/05/images/2020-03-16_05_30_34.389.png HTTP/1.1" 200 239556
10.174.18.221 - - [16/Mar/2020:06:23:13 +0000] "GET /Reports/execution_reports/16-03-2020/05/images/2020-03-16_05_31_35.468.png HTTP/1.1" 200 239802
10.174.18.221 - - [16/Mar/2020:06:23:31 +0000] "GET /Reports/execution_reports/16-03-2020/05/ST3_Norway_Flightonly_Retail_chrome.html HTTP/1.1" 200 64345
10.174.18.221 - - [16/Mar/2020:06:23:31 +0000] "GET /Reports/execution_reports/16-03-2020/05/images/2020-03-16_05_47_22.539.png HTTP/1.1" 200 269131
10.174.18.221 - - [16/Mar/2020:06:23:31 +0000] "GET /Reports/execution_reports/16-03-2020/05/images/2020-03-16_05_48_12.92.png HTTP/1.1" 200 269131
10.174.18.221 - - [16/Mar/2020:06:23:31 +0000] "GET /Reports/execution_reports/16-03-2020/05/images/2020-03-16_05_49_02.956.png HTTP/1.1" 200 269131
10.174.18.221 - - [16/Mar/2020:06:23:31 +0000] "GET /Reports/execution_reports/16-03-2020/05/images/2020-03-16_05_49_53.675.png HTTP/1.1" 200 269131
10.174.18.221 - - [16/Mar/2020:06:23:31 +0000] "GET /Reports/execution_reports/16-03-2020/05/images/2020-03-16_05_52_05.269.png HTTP/1.1" 200 269131
10.174.18.221 - - [16/Mar/2020:06:23:31 +0000] "GET /Reports/execution_reports/16-03-2020/05/images/2020-03-16_05_52_55.487.png HTTP/1.1" 200 269131
10.174.18.221 - - [16/Mar/2020:06:23:32 +0000] "GET /Reports/execution_reports/16-03-2020/05/images/2020-03-16_05_53_45.691.png HTTP/1.1" 200 269131
10.174.18.221 - - [16/Mar/2020:06:23:33 +0000] "GET /Reports/execution_reports/16-03-2020/05/images/2020-03-16_05_54_36.161.png HTTP/1.1" 200 269131
10.174.18.221 - - [16/Mar/2020:06:23:33 +0000] "GET /Reports/execution_reports/16-03-2020/05/images/2020-03-16_05_57_03.301.png HTTP/1.1" 200 269131
10.174.18.221 - - [16/Mar/2020:06:23:34 +0000] "GET /Reports/execution_reports/16-03-2020/05/images/2020-03-16_05_57_53.911.png HTTP/1.1" 200 269131
10.174.18.221 - - [16/Mar/2020:07:20:27 +0000] "GET /Reports/execution_reports/16-03-2020/05/ST3_CD_chrome.html HTTP/1.1" 304 -
10.174.18.221 - - [16/Mar/2020:07:20:27 +0000] "GET /Reports/execution_reports/16-03-2020/05/images/2020-03-16_05_31_10.903.png HTTP/1.1" 304 -
10.174.18.221 - - [16/Mar/2020:07:20:35 +0000] "GET /Reports/execution_reports/16-03-2020/05/ST3_CR_chrome.html HTTP/1.1" 304 -
10.174.18.221 - - [16/Mar/2020:07:20:35 +0000] "GET /Reports/execution_reports/16-03-2020/05/images/2020-03-16_05_33_52.984.png HTTP/1.1" 304 -
10.174.18.221 - - [16/Mar/2020:07:20:35 +0000] "GET /Reports/execution_reports/16-03-2020/05/images/2020-03-16_05_34_40.968.png HTTP/1.1" 304 -
10.174.18.221 - - [16/Mar/2020:07:20:35 +0000] "GET /Reports/execution_reports/16-03-2020/05/images/2020-03-16_05_35_28.703.png HTTP/1.1" 304 -
10.174.18.221 - - [16/Mar/2020:07:20:36 +0000] "GET /Reports/execution_reports/16-03-2020/05/images/2020-03-16_05_36_16.749.png HTTP/1.1" 304 -
10.174.18.221 - - [16/Mar/2020:07:20:36 +0000] "GET /Reports/execution_reports/16-03-2020/05/images/2020-03-16_05_37_04.281.png HTTP/1.1" 304 -
10.174.18.221 - - [16/Mar/2020:07:21:49 +0000] "GET /Reports/execution_reports/16-03-2020/05/ST3_Denmark_Flightonly_chrome.html HTTP/1.1" 304 -
10.174.18.221 - - [16/Mar/2020:07:22:23 +0000] "GET /Reports/execution_reports/16-03-2020/05/ST3_Falcon_chrome.html HTTP/1.1" 304 -
10.174.18.221 - - [16/Mar/2020:07:22:23 +0000] "GET /Reports/execution_reports/16-03-2020/05/images/2020-03-16_05_30_07.833.png HTTP/1.1" 304 -
10.174.18.221 - - [16/Mar/2020:07:22:23 +0000] "GET /Reports/execution_reports/16-03-2020/05/images/2020-03-16_05_29_24.542.png HTTP/1.1" 304 -
10.174.18.221 - - [16/Mar/2020:07:22:32 +0000] "GET /Reports/execution_reports/16-03-2020/05/ST3_Finland_Flightonly_chrome.html HTTP/1.1" 304 -
10.174.18.221 - - [16/Mar/2020:07:22:40 +0000] "GET /Reports/execution_reports/16-03-2020/05/ST3_HHM_chrome.html HTTP/1.1" 200 50157
10.174.18.221 - - [16/Mar/2020:07:22:40 +0000] "GET /Reports/execution_reports/16-03-2020/05/images/2020-03-16_05_31_40.317.png HTTP/1.1" 200 11836
10.174.18.221 - - [16/Mar/2020:07:22:48 +0000] "GET /Reports/execution_reports/16-03-2020/05/ST3_IEFO_Web_TwoWay_Smoke_chrome.html HTTP/1.1" 304 -
10.174.18.221 - - [16/Mar/2020:07:22:48 +0000] "GET /Reports/execution_reports/16-03-2020/05/images/2020-03-16_05_30_18.322.png HTTP/1.1" 304 -
10.174.18.221 - - [16/Mar/2020:07:22:48 +0000] "GET /Reports/execution_reports/16-03-2020/05/images/2020-03-16_05_32_02.593.png HTTP/1.1" 304 -
10.174.18.221 - - [16/Mar/2020:07:22:49 +0000] "GET /Reports/execution_reports/16-03-2020/05/images/2020-03-16_05_34_52.327.png HTTP/1.1" 304 -
10.174.18.221 - - [16/Mar/2020:07:22:49 +0000] "GET /Reports/execution_reports/16-03-2020/05/images/2020-03-16_05_33_43.968.png HTTP/1.1" 304 -
10.174.18.221 - - [16/Mar/2020:07:23:10 +0000] "GET /Reports/execution_reports/16-03-2020/05/ST3_WEB_FCMC_DESKTOP_chrome.html HTTP/1.1" 304 -
10.174.18.221 - - [16/Mar/2020:07:23:10 +0000] "GET /Reports/execution_reports/16-03-2020/05/images/2020-03-16_05_30_18.49.png HTTP/1.1" 304 -
10.174.18.221 - - [16/Mar/2020:07:23:10 +0000] "GET /Reports/execution_reports/16-03-2020/05/images/2020-03-16_05_28_42.188.png HTTP/1.1" 304 -
10.174.18.221 - - [16/Mar/2020:07:23:18 +0000] "GET /Reports/execution_reports/16-03-2020/05/ST3_WEB_THMC_DESKTOP_chrome.html HTTP/1.1" 304 -
10.174.18.221 - - [16/Mar/2020:07:23:18 +0000] "GET /Reports/execution_reports/16-03-2020/05/images/2020-03-16_05_34_15.809.png HTTP/1.1" 304 -
10.174.18.221 - - [16/Mar/2020:07:23:18 +0000] "GET /Reports/execution_reports/16-03-2020/05/images/2020-03-16_05_35_03.515.png HTTP/1.1" 304 -
10.174.18.221 - - [16/Mar/2020:07:23:18 +0000] "GET /Reports/execution_reports/16-03-2020/05/images/2020-03-16_05_35_51.39.png HTTP/1.1" 304 -
10.174.18.221 - - [16/Mar/2020:07:23:18 +0000] "GET /Reports/execution_reports/16-03-2020/05/images/2020-03-16_05_36_39.391.png HTTP/1.1" 304 -
10.174.18.221 - - [16/Mar/2020:07:23:18 +0000] "GET /Reports/execution_reports/16-03-2020/05/images/2020-03-16_05_37_26.687.png HTTP/1.1" 304 -
10.174.18.221 - - [16/Mar/2020:07:23:18 +0000] "GET /Reports/execution_reports/16-03-2020/05/images/2020-03-16_05_38_32.968.png HTTP/1.1" 304 -
10.174.18.221 - - [16/Mar/2020:07:51:01 +0000] "GET /Reports/Smoke_Report/Smoke_Reportanalysis.html HTTP/1.1" 200 20506
10.174.18.221 - - [16/Mar/2020:07:51:01 +0000] "GET /favicon.ico HTTP/1.1" 200 21630
10.174.18.173 - - [16/Mar/2020:07:57:37 +0000] "GET /Reports/Smoke_Report/Smoke_Reportanalysis.html HTTP/1.1" 200 20506
10.174.18.173 - - [16/Mar/2020:07:57:40 +0000] "GET /Reports/Smoke_Report/Smoke_Report.html HTTP/1.1" 200 12074
10.174.18.221 - - [16/Mar/2020:08:55:21 +0000] "GET /Reports/execution_reports/16-03-2020/07/ST3_Falcon_chrome.html HTTP/1.1" 200 54882
10.174.18.221 - - [16/Mar/2020:08:55:21 +0000] "GET /Reports/execution_reports/16-03-2020/07/images/2020-03-16_07_24_54.688.png HTTP/1.1" 200 128590
10.174.18.221 - - [16/Mar/2020:09:00:00 +0000] "GET /Reports/execution_reports/16-03-2020/07/ST3_TUIUK_chrome.html HTTP/1.1" 200 55661
10.174.18.221 - - [16/Mar/2020:09:00:01 +0000] "GET /Reports/execution_reports/16-03-2020/07/images/2020-03-16_07_22_16.971.png HTTP/1.1" 200 253395
10.174.18.221 - - [16/Mar/2020:09:00:01 +0000] "GET /Reports/execution_reports/16-03-2020/07/images/2020-03-16_07_23_20.033.png HTTP/1.1" 200 253690
10.174.18.221 - - [16/Mar/2020:09:00:15 +0000] "GET /Reports/execution_reports/16-03-2020/07/ST3_TUIUK_LM_chrome.html HTTP/1.1" 200 55352
10.174.18.221 - - [16/Mar/2020:09:00:16 +0000] "GET /Reports/execution_reports/16-03-2020/07/images/2020-03-16_07_23_35.171.png HTTP/1.1" 200 227963
10.174.18.221 - - [16/Mar/2020:09:00:16 +0000] "GET /Reports/execution_reports/16-03-2020/07/images/2020-03-16_07_25_10.926.png HTTP/1.1" 200 174316
10.174.18.221 - - [16/Mar/2020:09:15:04 +0000] "GET /Reports/execution_reports/16-03-2020/07/ST3_CD_chrome.html HTTP/1.1" 200 46906
10.174.18.221 - - [16/Mar/2020:09:15:04 +0000] "GET /Reports/execution_reports/16-03-2020/07/images/2020-03-16_07_22_51.681.png HTTP/1.1" 200 11610
10.174.18.221 - - [16/Mar/2020:09:16:43 +0000] "GET /Reports/Smoke_Report/Smoke_Reportanalysis.html HTTP/1.1" 200 19618
10.174.18.221 - - [16/Mar/2020:09:16:43 +0000] "GET /favicon.ico HTTP/1.1" 200 21630
10.174.18.221 - - [16/Mar/2020:09:19:11 +0000] "GET /Reports/execution_reports/16-03-2020/07/ST3_Falcon_chrome.html HTTP/1.1" 304 -
10.174.18.221 - - [16/Mar/2020:09:19:11 +0000] "GET /Reports/execution_reports/16-03-2020/07/images/2020-03-16_07_24_54.688.png HTTP/1.1" 304 -
10.174.18.221 - - [16/Mar/2020:09:19:18 +0000] "GET /Reports/execution_reports/16-03-2020/07/ST3_FIRSTCHOICE_chrome.html HTTP/1.1" 200 56391
10.174.18.221 - - [16/Mar/2020:09:19:19 +0000] "GET /Reports/execution_reports/16-03-2020/07/images/2020-03-16_07_22_26.704.png HTTP/1.1" 200 290048
10.174.18.221 - - [16/Mar/2020:09:19:19 +0000] "GET /Reports/execution_reports/16-03-2020/07/images/2020-03-16_07_23_29.457.png HTTP/1.1" 200 290303
10.174.18.221 - - [16/Mar/2020:09:19:19 +0000] "GET /Reports/execution_reports/16-03-2020/07/images/2020-03-16_07_25_11.539.png HTTP/1.1" 200 118433
10.174.18.47 - - [16/Mar/2020:09:24:43 +0000] "GET /Reports/execution_reports/16-03-2020/07/ST3_Denmark_Flightonly_chrome.html HTTP/1.1" 200 43592
10.174.18.47 - - [16/Mar/2020:09:24:56 +0000] "GET /Reports/ HTTP/1.1" 304 -
10.174.18.47 - - [16/Mar/2020:09:24:57 +0000] "GET /Reports/Smoke_Report/Smoke_Reportanalysis.html HTTP/1.1" 200 19618
10.174.18.47 - - [16/Mar/2020:09:25:00 +0000] "GET /Reports/Smoke_Report/Smoke_Report.html HTTP/1.1" 200 12038
10.174.18.221 - - [16/Mar/2020:10:37:29 +0000] "GET /Reports/Smoke_Report/Smoke_Reportanalysis.html HTTP/1.1" 304 -
10.174.18.221 - - [16/Mar/2020:10:37:29 +0000] "GET /favicon.ico HTTP/1.1" 200 21630
10.174.18.221 - - [16/Mar/2020:10:38:12 +0000] "GET /Reports/Smoke_Report/Smoke_Reportanalysis.html HTTP/1.1" 304 -
10.174.18.221 - - [16/Mar/2020:10:38:12 +0000] "GET /favicon.ico HTTP/1.1" 200 21630
10.174.18.221 - - [16/Mar/2020:10:38:22 +0000] "GET /Reports/execution_reports/16-03-2020/07/ST3_Falcon_chrome.html HTTP/1.1" 304 -
10.174.18.221 - - [16/Mar/2020:10:38:22 +0000] "GET /Reports/execution_reports/16-03-2020/07/images/2020-03-16_07_24_54.688.png HTTP/1.1" 304 -
10.174.18.221 - - [16/Mar/2020:10:38:30 +0000] "GET /Reports/Smoke_Report/Smoke_Reportanalysis.html HTTP/1.1" 304 -
10.174.18.221 - - [16/Mar/2020:10:38:30 +0000] "GET /favicon.ico HTTP/1.1" 200 21630
10.174.18.221 - - [16/Mar/2020:10:38:31 +0000] "GET /Reports/Smoke_Report/Smoke_Reportanalysis.html HTTP/1.1" 304 -
10.174.18.221 - - [16/Mar/2020:10:38:32 +0000] "GET /favicon.ico HTTP/1.1" 200 21630
10.174.18.221 - - [16/Mar/2020:10:38:38 +0000] "GET /Reports/Smoke_Report/Smoke_Reportanalysis.html HTTP/1.1" 304 -
10.174.18.221 - - [16/Mar/2020:10:38:38 +0000] "GET /favicon.ico HTTP/1.1" 200 21630
10.174.18.221 - - [16/Mar/2020:10:39:57 +0000] "GET /Reports/Smoke_Report/Smoke_Reportanalysis.html HTTP/1.1" 304 -
10.174.18.221 - - [16/Mar/2020:10:39:58 +0000] "GET /favicon.ico HTTP/1.1" 200 21630
10.174.18.221 - - [16/Mar/2020:10:39:59 +0000] "GET /Reports/Smoke_Report/Smoke_Reportanalysis.html HTTP/1.1" 304 -
10.174.18.221 - - [16/Mar/2020:10:39:59 +0000] "GET /favicon.ico HTTP/1.1" 200 21630
10.174.18.221 - - [16/Mar/2020:10:48:05 +0000] "GET /Reports/Smoke_Report/Smoke_Reportanalysis.html HTTP/1.1" 304 -
10.174.18.221 - - [16/Mar/2020:10:48:05 +0000] "GET /favicon.ico HTTP/1.1" 200 21630
