Object_Name,Object_Type,Object_Locator_Type,Object_Locator_Value

OR FOR HOME PAGE ,,,
ORFH_HomePage_FlightsTabWeb,Button,xpath,//a[@href='/flight']
OR_HomePage_FlightsTab,Button,Xpath,//a[@href='/retail/flight']
OR_HomePage_FlightsTab_Web,Button,Xpath,(//a[@href='/flight'])[1]
OR_HomePage_CruiseTabWeb,Button,Xpath,(//*[@href='/cruise'])[1]
OR_HomePage_CruiseTabRetail,Button,Xpath,(//*[@href='/retail/cruise'])[1]
ORFH_SearchPanel_FlyingFrom,Button,xpath,//input[@id='airports']
OR_SearchPanel_SelectAirport,Button,xpath,"//div[contains(@id,'tui_widget_searchpanel_views_CheckBox')]"
OR_SearchPanel_SelectAirportDone,Button,xpath,(//a[text()='Done'])[2]
OR_SearchPanel_Destination,TextBox,xpath,"//div[contains(@id,'tui_widget_searchpanel_views_SelectedList')]/input[@placeholder='Any destination']"
OR_SearchPanel_Destination_AutoSuggest,Button,xpath,//div[@class="wrap suggestions"]//ul/li[2]/a
OR_SearchPanel_WhereToList,Button,xpath,//*[text()='List']
OR_SearchPanel_WhereToListItems,Button,xpath,//div[@class='list-container multi-list']//ul/li
ORRes_SearchPanel_When,Button,xpath,//*[@id='when']
OR_SearchPanel_DepartureDateMonth,Button,xpath,"//div[contains(@class,'month-navigator')]/div"
OR_SearchPanel_DepartureMonthValue,Button,xpath,"//div[contains(@class,'month-navigator')]/div//option"
OR_SearchPanel_DepartureDateValue,Button,xpath,"//div[@class='calendar']//table//td[contains(@class,'avail')]"
OR_SearchPanel_SearchButton,Button,xpath,//a[text()='earch']
OR_SearchPanel_SearchButtonF1,Button,xpath,//*[@id="tui_searchPanel_view_flights_ubmitButton_0"]
OR_SearchPanel_SearchButtonFR,Button,xpath,//*[@id="tui_searchPanel_view_flights_ubmitButton_0"]
OR_SearchPanel_SearchButtonFO,Button,xpath,//*[@id='tui_searchPanel_view_flights_SubmitButton_0']
OR_SearchPanel_WhereTo,Button,Xpath,.//*[@id='tui_widget_searchpanel_views_SelectedList_0']/input
ORFH_LM_SearchPanel_WhereTo,Button,Xpath,.//*[@id='units']
OR_SearchPanel_WhereToValue,Button,Xpath,"//div[@class='details-box']//div[@id='regions' or @id='countries']//label[not(contains(@class,'disabled'))]/div"
OR_SearchPanel_WhereFrom,Button,Xpath,//div[@id='airport-guide']/div
OR_SearchPanel_Airport,Button,Xpath,"(//div[contains(@class,'guide airport')])[1]//label[not(contains(@class,'disabled'))]"
OR_SearchPanel_When,Button,Xpath,//div[@class='col when']//span[@class='arrow']
ORFH_LM_SearchPanel_When,Button,Xpath,.//*[@id='when']
OR_SearchPanel_MonthValue,Button,xpath,"//div[@id='tui_widget_ScrollPanel_0']//ul/li[not(contains(@class,'disabled'))][not(contains(text(),'Select'))]"
OR_SearchPanel_DurationClick,Button,xpath,//div[@id='duration']//span[@class='arrow']
OR_SearchPanel_DurationValue,TextBox,xpath,"//div[@class='dropdownlist' and not(contains(@style,'display: none'))]//ul/li"
OR_SearchPanel_Adult,Button,xpath,//div[@id='totalAdults']//span[@class='arrow']
OR_SearchPanel_AdultValue,TextBox,xpath,//div[@class='dropdownlist'][1]/ul/li
OR_SearchPanel_Childern,Button,xpath,//div[@id='totalChildren']//span[@class='arrow']
OR_SearchPanel_ChildernValue,TextBox,xpath,(//div[@class='dropdownlist'])[2]/ul/li
OR_SearchPanel_ChildAgeClick,Button,xpath,(//div[@class="item child-age-selector number-dropdown"]//span[@class="arrow"])[1]
OR_SearchPanel_ChildAgeValue,Button,xpath,"//div[contains(@id,'tui_widget_ScrollPanel') and not(contains(@style,'display: none'))]//ul/li[position()>2]"
ORFH_Search_HowLongTextBox1,TextBox,xpath,.//*[@id='search-panel']//label[text()='How long?']
OR_Search_whoisgoingTextBox,TextBox,xpath,//*[@id='whosgoing']
ORFH_Search_Button,Button,xpath,//*[@id='tui_widget_searchpanel_views_SubmitButton_0']
ORFH_LM_Holidays,link,xpath,//*[@class="ensLinkTrack" and text()= "HOLIDAYS"]
ORFH_LM_Cruises,link,xpath,//*[@class="ensLinkTrack" and text()= "CRUISES"]
ORFH_LM_Flights,link,xpath,//*[@class="ensLinkTrack" and text()= "FLIGHTS"]
ORFH_LM_Cities,link,xpath,//*[@class="ensLinkTrack" and text()= "CITIES"]
ORFH_LM_Deals,link,xpath,//*[@class="ensLinkTrack" and text()= "DEALS"]
ORFH_LM_Destinations,link,xpath,//*[@class="ensLinkTrack" and text()= "DESTINATIONS"]
ORFH_LM_Tab,link,xpath,//*[@class="ensLinkTrack" and text()= "LAKES & MOUNTAINS"]
ORFH_LM_Extras,link,xpath,//*[@class="ensLinkTrack" and text()= "EXTRAS"]
OR_LM_Promocode,TextBox,xpath,//*[@id='tui_widget_dealspage_view_PromoCode_0']
OR_LM_Bottomright_Merch,link,xpath,//*[@id='tui_widget_responsiveHomepage_GridHeightSetter_0']/div/div/ul/li[1]/a/div/div[2]/div
OR_LM_HRB_Bottomright_Merch,link,xpath,.//*[@id='tui_widget_responsiveHomepage_GridHeightSetter_0']/div/div/ul/li[2]/div/div[2]/div
OR_LM_Bottomleft_Merch,link,xpath,//*[@id='tui_widget_responsiveHomepage_GridHeightSetter_0']/div/div/ul/li[2]/a/div/div[2]/div
OR_LM_HRB_Bottomleft_Merch,link,xpath,.//*[@id='tui_widget_responsiveHomepage_GridHeightSetter_0']/div/div/ul/li[1]/div/div[2]/div
ORFH_Destination_Deals_Comp,TextBox,Xpath,.//div[@class='TH_Home_Deals']/div/h2
ORFH_LM_GlobalHeader,TextBox,Xpath,.//*[@id='header-nav']
ORFH_LM_GlobalFooter,TextBox,Xpath,.//*[@id='search']
ORFH_LM_TouristComp,link,xpath,".//div[contains(@class,'tourist')]//a/div/img"
ORFH_LM_Facebook,link,xpath,.//*[@class="icon fb"]/a
ORFH_LM_Twitter,link,xpath,.//*[@class="icon tw"]/a
ORFH_LM_Google+,link,xpath,.//*[@class="icon gp"]/a
ORFH_LM_YouTube,link,xpath,.//*[@class="icon yt"]/a
ORFH_LM_Pinterest,link,xpath,.//*[@class="icon pn"]/a
ORFH_LM_Instagram,link,xpath,.//*[@class="icon in"]/a
ORFH_LM_HeroGallerySection,link,xpath,.//*[@id='hero-banner']//picture/img
ORFH_TrainTransferText,TextBox,Xpath,"(//li[contains(text(),'Train Transfer')])[1]"
ORFH_Traintransfer_ConfirmationPage,TextBox,Xpath,"//*[@id=""sidebar""]//p[contains(text(),'Switzerland')]"
OR__HRB_HeroGallerySection,link,Xpath,.//*[@id='hero-banner']/div/div/picture/img
ORFH_LM_MAPComponent,TextBox,Xpath,.//*[@id='map-canvas']/div/div/div[1]/div[3]/div
ORFH_LM_LakesComponent,TextBox,Xpath,".//div/ul/li[1]/div[2]/div/div/h2[contains(text(),'Lakes Holidays')]"
ORFH_LM_MountainComponent,TextBox,Xpath,".//div/ul/li[2]/div[2]/div/div/h2[contains(text(),'Mountain Holidays')]"
OR_LM_CountryName,TextBox,Xpath,.//*[@id='tui_widget_globalHeader_menu_Navigation_0']//h1
OR_LM_MainMenu,link,Xpath,".//*[@id='the-main-menu']//a[contains(text(),'LAKES')]"
ORFH_LM_NewTouristComp,link,Xpath,".//h2[contains(text(),'DESTINATION OF THE FORTNIGHT')]"
OR_LM_DESTINATOINS_THINGSTOSEE,TextBox,Xpath,.//div[@class='thingstosee_resort']/div/div/h2
OR_LM_DESTINATOINS_THINGSTOSEE_TABNEXT,Link,Xpath,".//*[contains(@id,'tab')]/div/a[2]/span[2]"
OR_LM_DESTINATOINS_THINGSTOSEE_TABHEADERTEXT,TextBox,Xpath,.//*[@id='tabBEACHES']/div/div/div/ul/li/h3
ORFH_LM_HRB_DestinationsTAB,link,Xpath,.//*[@id='the-main-menu']//a[text()='DESTINATIONS']
ORFH_LM_Destinations_Page_title,TextBox,Xpath,.//*[@id='content']//*[@class='page-title']
OR_LM_Mobile_Destinations_Page_title,TextBox,Xpath,//*[@id="content"]/div/div[2]/h1
OR_LM_Destinations_QuickSearch,TextBox,Xpath,.//*[@id='quick-search']/div/form/div/label
ORFH_LM_Destinations_QuickSearch_Box,TextBox,Xpath,.//*[@id='qs']
OR_LM_HRB_Destinations_QuickSearch_Box,TextBox,Xpath,.//*[@id='qs']
ORFH_LM_Destinations_MatchesFound,Link,Xpath,".//*[@id='falcon']//div[contains(@class,'autocomplete')]//li[contains(@class,'active')]/a"
OR_LM_HRB_Destinations_MatchesFound,Link,Xpath,.//*[@id='retail']/body/div[6]/ul/li/a
ORFH_LM_DestinationsPage,TextBox,Xpath,.//*[@id='tui_widget_globalHeader_menu_Navigation_0']//h1[text()='Destinations']
ORFH_LM_HolidaysTAB,Link,Xpath,.//*[@id='the-main-menu']/li[1]/a
ORFH_OR_LM_PlatimunCollections,Link,Xpath,.//*[@id='site-HOLIDAYS']/div/div/div[4]/div/ul/li/a/span[text()='Platinum']
ORFH_LM_10Reasons,TextBox,Xpath,".//h2[contains(text(),'10 Reasons')]"
OR_LM_PlatinumTooltip,TextBox,Xpath,.//*[@id='tui_widget_media_InventoryCarouselSwipe_0']/div/div/div/div/div/div/h3
OR_LM_PlatinumTooltipFalcon,TextBox,Xpath,.//*[@id='homeGalleryCarousel']/ul/li/div[2]/div
OR_LM_PlatinumTooltipRightArrow,Link,Xpath,//*[@id="goRight"]/a
OR_LM_Platinum_BestForText,TextBox,Xpath,.//*[@id='filterIGController']/div[2]/h3/a/span[1]
OR_LM_BestForPlatinumSummaryCount,TextBox,Xpath,.//*[@id='pCount']/span
ORFH_LM_BestForHolidayViewDetails,Button,Xpath,.//*[@id='showIGPackagesComponent']/li[1]/div/div[2]/div/a
OR_LM_Destinations_AllCountryPages,TextBox,Xpath,(.//*[@id='tui_widget_common_AccordionResponsive_0']/div)
OR_LM_Destinations_HRBAllCountryPages,TextBox,Xpath,.//*[@id='geo-nav']/li/h3
OR_LM_Destinations_Page_Region_Title,TextBox,Xpath,.//*[@id='tui_widget_globalHeader_menu_Navigation_0']/div[4]/div[2]/div/h1
OR_LM_HRB_ResortPageTitle,TextBox,Xpath,.//*[@id='content']//h1[@class='page-title']
OR_LM_Destinations_ResortImage,TextBox,Xpath,.//*[@id='tui_widget_globalHeader_menu_Navigation_0']/div[4]/div[6]/div[2]/div/div[1]/ul/li[1]/a/div/div[2]/div
ORFH_LM_FLIGHTSTAB,Link,Xpath,".//*[@id='the-main-menu']//a[contains(text(),'FLIGHTS')]"
ORFH_LM_FLIGHTS_TAB_ViewALL,Link,Xpath,".//*[@id='site-FLIGHTS']//child::a[contains(text(),'View')]"
OR_LM_HRB_FLIGHTS_TAB_ViewALL,Link,Xpath,".//*[@id='site-FLIGHTS']//child::a[contains(text(),'View')]"
ORFH_LM_FLIGHTS_WHEREWEFLY,TextBox,Xpath,".//*[@id='content']//h1[contains(text(),'Where')]"
OR_LM_Mobile_FLIGHTS_WHEREWEFLY,TextBox,Xpath,//*[@id="collections-guides-offers"]/div/ul/li[2]/div/div[2]/h2
OR_LM_COLLECTIONCSCHECKPRICES,Link,Xpath,"//a[contains(text(),'Check prices')]"
OR_LM_FLIGHTS_WHEREWEFLY_LINK,Link,Xpath,//*[@id="collections-guides-offers"]/div/ul/li[2]/div/a
ORFH_LM_FLIGHTS_FLYTO_TAB,TextBox,Xpath,".//*[@id='overseasAirports']/a[contains(text(),'FLY TO')]"
OR_LMMOBILE_FLIGHTS_FLYTO_DESTINATION_APPLY,Link,Xpath,//*[@id="apply"]/a
OR_LM_MOBILE_FLIGHTS_FLYTO_TAB,Link,Xpath,//*[@id="overseasAirportsMobile"]/a
OR_LM_FLIGHTS_ALL_AIRPORTSLIST,Link,Xpath,.//*[@id='overseasAirports-content']/div/ul/li/label/a
OR_LM_FLIGHTS_AIRPORT_HEADER,TextBox,Xpath,.//*[@id='main']/div[2]/div[1]/h1
OR_LM_FLIGHTS_AIRPORT_INFOIRMATION,TextBox,Xpath,".//*[@id='main']//h2[contains(text(),'AIRPORT INFORMATION')]"
OR_LM_FLIGHTS_AIRPORT_NAME,TextBox,Xpath,".//*[@id='main']//b[contains(text(),'Airport Name')]"
OR_LM_FLIGHTS_AIRPORT_NAME_VALUE,TextBox,Xpath,.//*[@id='main']/div[3]/div/div[1]/div[2]/ul/li[1]
OR_LM_FLIGHTS_AIRPORT_LOCATION,TextBox,Xpath,".//*[@id='main']//b[contains(text(),'Airport Location')]"
OR_LM_FLIGHTS_AIRPORT_LOCATION_VALUE,TextBox,Xpath,.//*[@id='main']/div[3]/div/div[1]/div[2]/ul/li[2]
OR_LM_FLIGHTS_AIRPORT_TERMINAL,TextBox,Xpath,".//*[@id='main']//b[contains(text(),'Terminal')]"
OR_LM_FLIGHTS_AIRPORT_TERMINAL_VALUE,TextBox,Xpath,.//*[@id='main']/div[3]/div/div[1]/div[2]/ul/li[3]
OR_LM_FLIGHTS_AIRPORT_GETTINGTOANDFROM,TextBox,Xpath,".//*[@id='tui_widget_flightsWherewefly_AirportInfoTabNavigation_0']//h2[contains(text(),'GETTING TO AND FROM')]"
OR_LM_FLIGHTS_OURAIRPORTS,TextBox,Xpath,".//*[@id='main']//h2[contains(text(),'OUR AIRPORTS')]"
OR_LM_FLIGHTS_AIRPORT_EXTRAS,TextBox,Xpath,".//*[@id='main']//h2[contains(text(),'EXTRAS')]"
ORFH_LM__Search_WhereToTextBox,TextBox,xpath,//input[@placeholder='Any Lakes & M...']
ORFH_LM__whereto__list,Button,xpath,//*[text()='List']
ORFH_LM__LANDING_WHERETOVALUE,TextBox,xpath,"//ul[contains(@class,'SelectDestinations__destinationListStyle')]/li"
ORFH__whereto__secondui,link,xpath,"//div[contains(@class,'rah-static rah-static--height-auto')]//li[3]"
ORFH__Search_FlyFromTextBox,TextBox,xpath,//input[@placeholder='Choose airports']
ORFH__LANDING_FLYFROMVALUE,Button,xpath,"//*[contains(@id,'tui_widget_searchpanel_views_CheckBox')]|//*[contains(@class,'CheckboxTextAligned undefined undefined')]"
ORFH_LM__flyfrom__Done,link,xpath,//*[@class="button-container c"]/div[2]/a
ORFH_LM__flyfrom__Close,Link,Xpath,".//*[@id='header']//a[contains(@class,'close')]"
ORFH_LM__Search_WhenTextBox,Button,xpath,//input[@placeholder='Select a date']
ORFH_LM_RandomMONTHSELECTIONCLICK,TextBox,xpath,"//div[@class='month-navigator']//select//option[contains(@data-select-value,'2019')]"
ORFH_LM_RandomDATESELECTION,TextBox,xpath,"//div[@class='month']//td[contains(@class,'avail  ')]"
ORFH_LM_LANDING_MONTHSELECTIONCLICK,TextBox,xpath,//*[@id='tui_widget_searchpanel_views_DepartureDate_0']/div[2]/div/div[2]/div/div[1]/div/select/option|//div[@class='calendar']/div/div/select/option
ORFH_LM_LANDING_DATESELECTION,TextBox,xpath,"//*[@id='tui_widget_searchpanel_views_DepartureDate_0']/div//div/div/div/div/table/tbody/tr/td[(contains(@class,'avail'))]/i|//div[@class='month']/table/tbody/tr/td"
ORFH_LM__LANDING__HOWLONGVALUE,TextBox,xpath,//*[@id='duration']/option
ORFH_THRes_Landingpage_AdultDropDown,Button,id,adults
ORFH_THRes_Landingpage_ChildDropDown,Button,id,children
ORFH_TH_Search_AdultValueB,Button,xpath,//div[@class="field adult"]//select[@id='adults']/option
ORFH_TH_Search_ChildernValueB,Button,xpath,//div[@class="field child"]//select[@id='children']/option
ORFH_LM__Search_Button,Button,xpath,".//a[contains(@id,'SubmitButton')]|//button[contains(text(),'Sea')]"
ORFH_LM_PAX_SELECTION,Select,Xpath,".//*[contains(@id,'title')]"
OR_FO_LM_PAX_SELECTION,Select,Xpath,".//select[contains(@class,'title-dropdown')]"
ORFH_Passengers_ErrataConfirmCheckbox,CheckBox,xpath,//span[@name="importantInformationChecked"]
OR_LM_HRB_Login,TextBox,Xpath,.//*[@id='user-id']
OR_LM_HRB_Password,TextBox,Xpath,.//*[@id='userpassword']
OR_LM_HRB_Login_Button,Button,Xpath,.//*[@id='submit-button']
OR_LM_HRB_LM_TAB,Link,Xpath,.//*[@id='the-main-menu']//*[text()='LAKES & MOUNTAINS']
TH_Search_WhereToB,Button,xpath,//input[@id='units']
TH_Search_WhereToValueB,TextBox,xpath,//input[@id='units']
LM_HRB_FreeTextSelection,Button,Xpath,.//*[@id='tui_widget_searchpanel_views_FreeTextSearch_1']/div[2]/div/div[1]/ul/li[2]
LM_Search_From_Link,Button,Xpath,.//*[@id='tui_widget_searchpanel_views_SelectedList_0']/a/span
TH_Search_AirportB,CheckBox,xpath,//div[@id='tui_widget_searchpanel_views_SearchPanelMultiSelect_0']/div/div[1]//span
LM__flyfrom__Done,link,xpath,//*[@class="button-container c"]/div[2]/a
LM_Search_Month,TextBox,Xpath,//*[@id='when']
TH_Search_MonthValueB,Button,xpath,//*[@id='tui_widget_searchpanel_views_DepartureDate_0']/div[2]/div/div[2]/div/div[1]/div/select/option
TH_HRB_Search_MonthValueB,Button,Xpath,.//*[@id='tui_widget_datepicker_DateSelectOption_0']/select/option
TH_HRB_Search_DateB,Button,Xpath,.//*[@id='retail']/body/div[11]/table/tbody/tr/td/a
TH_Search_DateB,Button,Xpath,"//*[@id='tui_widget_searchpanel_views_DepartureDate_0']/div//div/div/div/div/table/tbody/tr/td[(contains(@class,'avail'))]/i"
LM__Search_whoisgoingTextBox,TextBox,xpath,//*[@id='whosgoing']
OR_LM_LANDING_ADULT,Link,xpath,"(//*[contains(@id,""tui_widget_searchpanel_views_RoomPax"")]/div/select)[2]"
OR_LM_LANDING_CHILDREN,Link,xpath,"(//*[contains(@id,""tui_widget_searchpanel_views_RoomPax"")]/div/select)[3]"
LM_LANDING_ADULTVALUE,Select,xpath,"(//*[contains(@id,""tui_widget_searchpanel_views_RoomPax"")]/div/select)[2]/option"
LM_LANDING_CHILDRENVALUE,Select,xpath,"(//*[contains(@id,""tui_widget_searchpanel_views_RoomPax"")]/div/select)[3]/option"
LM_HRB_Child1_Age,Link,Xpath,"//*[contains(@id,""tui_widget_searchpanel_views_RoomPax"")]/div/select"
LM_HRB_Child1_AgeVALUE,Select,xpath,"(//*[contains(@id,""tui_widget_searchpanel_views_RoomPax"")]/div/select)[4]/option"
LM__Child_Done,link,xpath,(//a[text()='Done'])[3]
LM_HRB_SearchButton,Link,Xpath,//*[@id="tui_searchBPanel_view_SubmitButton_0"]
LM_HRB_Accom_Continue_Btn,Button,Xpath,.//*[@id='tui_widget_taggable_AccommodationSummary_0']//*[text()='Continue']
LM_HRB_Flights_LM_Continue_Btn,Button,Xpath,.//*[@id='tui_widget_booking_flightoptions_view_LastChanceAncillary_0']
LM_HRB_NOThanks,Button,Xpath,.//*[@id='thanks']
ORFH_FO_Passengers_TitleArrow,DropDown,xpath,html/body//div[2]/div[1]/div[1]/div/a
LM_HRB_Pax_Adult_FirstName,TextBox,Xpath,.//*[@id='tui_widget_form_ValidationTextBox_0']
LM_HRB_Pax_Adult_Surname,TextBox,Xpath,.//*[@id='paxInfoFormBeanlastName0']
LM_HRB_Pax_Adult_Add1,TextBox,Xpath,.//*[@id='tui_widget_form_ValidationTextBox_1']
LM_HRB_Pax_Adult_Add2,TextBox,Xpath,.//*[@id='tui_widget_form_ValidationTextBox_2']
LM_HRB_Pax_Adult_AddCity,TextBox,Xpath,.//*[@id='tui_widget_form_ValidationTextBox_3']
LM_HRB_Pax_Adult_AddCountry,TextBox,Xpath,.//*[@id='tui_widget_form_ValidationTextBox_4']
LM_HRB_Pax_Adult_PostCode,TextBox,Xpath,.//*[@id='tui_widget_form_ValidationTextBox_5']
LM_HRB_Pax_Adult_Telephone,TextBox,Xpath,.//*[@id='tui_widget_form_ValidationTextBox_6']
LM_HRB_Pax_Adult_Email,TextBox,Xpath,.//*[@id='tui_widget_form_ValidationTextBox_7']
LM_HRB_Pax_Adult_ConfEmail,TextBox,Xpath,.//*[@id='tui_widget_form_ValidationTextBox_8']
LM_HRB_PassengerDetails_LM_AdultDOB,TextBox,Xpath,.//*[@id='tui_widget_form_ValidationTextBox_9']
LM_HRB_Pax_Adult2_FirstName,TextBox,Xpath,.//*[@id='tui_widget_form_ValidationTextBox_10']
LM_HRB_Pax_Adult2_Surname,TextBox,Xpath,.//*[@id='paxInfoFormBeanlastName1']
LM_HRB_Agent_DropDown_SelectAgent,Link,Xpath,.//*[@id='tui_widget_ScrollPanel_0']/div[1]/ul/li[2]
LM_HRB_Agent_DropDown,Link,Xpath,(.//div[@class='selectDropdown'])[2]/div/a
LM_HRB_ConfirmationCheckBox,CheckBox,Xpath,.//*[@id='impInfoCheckbox']
LM_HRB_PopUP_After_PaxPage,TextBox,Xpath,.//*[@id='DPNoverlay']
LM_HRB_PopUP_After_PaxPage_ConfirmBtn,Button,Xpath,.//*[@id='DPNoverlay']//*[@class='okbutton selected']
LM_HRB_PopUP_After_PaxPage_Title,TextBox,Xpath,.//*[@id='DPNoverlay']//*[@class='web_dialog_title']
LM_HRB_Confirmation_Label,TextBox,Xpath,.//*[@id='top']/h1
LM_HRB_Confirmation_BookRef,TextBox,Xpath,.//*[@id='mainConfirmation']//*[@class='detailsConfirmation']/ul[1]/li/b
LM_HRB_Confirmation_VisionRef,TextBox,Xpath,.//*[@id='mainConfirmation']//*[@class='visionRef']
LM_HRB_PassengerDetails_LM_Continue_Btn,Button,id,passengerDetailsSubmitButton
LM_CA_LM_SearchHoliday,Link,xpath,//*[@id="tui_widget_searchpanel_EditSearchButton_0"]//span[text()='HOLIDAY SEARCH']
LM__Mobile_Search_FlyFromTextBox,TextBox,xpath,.//*[@id='tui_widget_searchpanel_views_droplist_AirportList_0']
LM_CA_Mobile_Toggle,Link,Xpath,.//*[@id='toggle']
LM_Mobile_LandingPage_HOLIDAYS,Link,Xpath,.//*[@id='tui_widget_globalHeader_DomRearranger_0']//span[text()='HOLIDAYS']
LM_Mobile_LandingPage_CRUISE,Link,Xpath,.//*[@id='tui_widget_globalHeader_DomRearranger_0']//span[text()='CRUISES']
LM_Mobile_LandingPage_FLIGHTS,Link,Xpath,.//*[@id='tui_widget_globalHeader_DomRearranger_0']//span[text()='FLIGHTS']
LM_Mobile_LandingPage_CITIES,Link,Xpath,.//*[@id='tui_widget_globalHeader_DomRearranger_0']//span[text()='CITIES']
LM_Mobile_LandingPage_DEALS,Link,Xpath,.//*[@id='tui_widget_globalHeader_DomRearranger_0']//span[text()='DEALS']
LM_Mobile_LandingPage_DESTINATIONS,Link,Xpath,.//*[@id='tui_widget_globalHeader_DomRearranger_0']//span[text()='DESTINATIONS']
LM_Mobile_LandingPage_LM,Link,Xpath,.//*[@id='tui_widget_globalHeader_DomRearranger_0']//span[text()='LAKES & MOUNTAINS']
LM_Mobile_LandingPage_EXTRAS,Link,Xpath,.//*[@id='tui_widget_globalHeader_DomRearranger_0']//span[text()='EXTRAS']
LM_Mobile_LandingPage_CLOSEFLYOUT,Link,Xpath,.//*[@id='tui_widget_globalHeader_menu_Navigation_0']/div[7]
LM_Mobile_LandingPage_HEROGALLERYSECTION,Link,Xpath,.//*[@id='hero-banner']/a/div/div/picture/img
LM_Mobile_LandingPage_DESTINATIONDEALS,TextBox,Xpath,.//*[@id='tui_widget_globalHeader_menu_Navigation_0']//h2[text()='DESTINATION DEALS']
LM_Mobile_LandingPage_GlobalHeader,TextBox,Xpath,.//*[@id='new-holiday-finder']/div[1]/p
LM_Mobile_Destinations_Arrow,Link,Xpath,//*[@id="activated"]/a/span
LM_Mobile_Destinations_PlacesToGO,Link,Xpath,//*[@id="navTabs"]/li[2]
LM_Mobile_Destinations_EssentialInfo,Link,Xpath,//*[@id="navTabs"]/li[3]
LM_Mobile_Destinations_ThingstoDo,Link,Xpath,//*[@id="navTabs"]/li[4]
LM_CA_DoneButton,Link,Xpath,".//a[contains(text(),'Done')]"
LM_CA_Mobile_HotelContinue,Button,Xpath,"(//a[contains(text(),""Continue"")])[1]"
LM_CA_Mobile_AccomContinue,Button,Xpath,//*[@id="summary-panel"]/div/div[2]/div/div[2]/a
LM_CA_Mobile_FlightsContinue,Button,Xpath,.//*[@id='customer-form']/a[1]
LM_CA_Mobile_RoomContinue,Button,Xpath,.//*[@id='customer-form']/a[1]
LM_CA_Mobile_ExtraOptionsContinue,Button,Xpath,.//*[@id='customer-form']/a[1]
ORFH_Payment_ExpMonth,Select,id,expiryDateMM
ORFH_Payment_ExpYear,Select,id,expiryDateYY
ORFH_Payment_Security,TextBox,xpath,//input[@id='securityCode']
TH_Payment_CheckBox,CheckBox,xpath,//span[@class="radio check confirm"]
ORFH_Payment_CardHolderName,TextBox,xpath,//input[@id='cardName']
ORFH_LMFH_Payment_CardHolderName,TextBox,Xpath,//*[@id="cardholderName"]
LM_Mobile_Holidays_Collections,Link,Xpath,//*[@id="tui_widget_globalHeader_DomRearranger_19"]/li[1]/a
LM_Mobile_Holidays_CollectionsTAB,Link,Xpath,//*[@id="tui_widget_Tabs_0.tab.1"]/a
LM_Mobile_Holidays_PlatinumCollections,Link,Xpath,"//*[@id=""collections""]/ul/li[3]/a[contains(@href,'Platinum')]"
LM_Mobile_Holidays_PlatinumHeaderText,TextBox,Xpath,//*[@id="tui_widget_globalHeader_menu_Navigation_0"]/div[3]/div[1]/h1
LM_Collection_LMPT_Checkbox,Button,Xpath,.//*[@id='field_HT_PRM']
LM_Mobile_Holidays_CollectionsFilter,Link,Xpath,//*[@id="tui_widget_searchResults_filters_view_CollectionsSelector_0"]
LM_Mobile_Holidays_PlatinumCollectionFilter,Link,Xpath,//*[@id="quick-filter"]/div/div/div/div[3]/div[1]/ul/li[3]
LM_Mobile_Holidays_LMPlatinumCollectionFilter,Link,Xpath,//*[@id="quick-filter"]/div/div/div/div[3]/div[1]/ul/li[2]
LM_Mobile_Holidays_CollectionApplyButton,Button,Xpath,//*[@id="quick-filter"]/div/div/div/div[3]/div[2]/a[2]
LM_Mobile_HolidaysTAB,Link,Xpath,//*[@id="new-holiday-finder"]/div[1]/p
LM_Mobile_BrandParameter_Collections,TextBox,Xpath,//*[@id="results-container"]/ul/li[1]/div
LM_Mobile_Resultcontainer_FirstResult,Link,Xpath,//*[@id="results-container"]/ul/li[1]/div/a/div/img
LM_Mobile_FlyON Page,Link,Xpath,//*[@id="date"]/div[1]/h3
LM_Mobile_Collection_FlyGroup,Link,Xpath,//*[@id="tui_widget_singleAccom_view_FlightsGroup_0"]/div/div[1]/div
LM_Mobile_CollectionResults_Continue,Link,Xpath,//*[@id="tui_widget_singleAccom_view_FlightsGroup_0"]/div/div[2]/div/a[1]
ORFH_Search_ChooseYourRoom,TextBox,xpath,//a[@id="edit-rooms"]
ORFH_Search_HolidayCount,TextBox,xpath,"//*[contains(@aria-label,'holiday count')]"
LM_Holidays_CollectionsHeaderText,TextBox,Xpath,.//*[@id='filterIGController']//a//span[text()='COLLECTION']
ORFH_Collections_FlyFrom,TextBox,Xpath,//*[@id="where-from"]/div[1]
LM_Collection_CheckPrices,Link,Xpath,.//*[@id='tui_searchBGetPrice_view_GetPriceModal_0']
LM_Collection_FlyFrom,Link,Xpath,.//*[@id='get-where-from']/div
LM_HRB_FlyFromValue,Button,id,LN
LM_HRB_FlyFromValue_CloseBtn,Button,Xpath,.//*[@id='get-priceB-modal']/div[1]/div[2]/div/a
LM_HRB_When,Button,Xpath,.//*[@id='get-when']
ORFH_HRB_When_MonthsDropdown,Button,Xpath,.//*[@id='tui_widget_datepicker_DateSelectOption_0']/a/span[1]
ORFH_HRB_When_Months,Button,Xpath,.//*[@id='tui_widget_ScrollPanel_0']/div[1]/ul/li
LM_HRB_SelectDate,Button,Xpath,.//*[@id='retail']/body/div/table/tbody/tr/td/a
ORFH_HRB_SelectDate_Collections,Button,Xpath,.//*[@id='thomson']/body/div/table/tbody/tr/td/a
LM_Collection_CheckPrices_SearchBtn,Button,Xpath,.//*[@id='tui_searchBPanel_view_SubmitButton_1']
LM_Collection_CheckPrices_SearchResults_ConinueBtn,Button,Xpath,"(.//*[contains(@id,'singleAccom')]//a[text()='continue'])[1]"
LM_HRB_PassengerErrata_Confirm,CheckBox,Xpath,//*[@id="impInfoCheckbox"]
ORFH_LondonAny_FlyFrom,Button,Xpath,//*[@id="LN"]
ORFH_DUBLIN_FlyFrom,Button,Xpath,//*[@id="DUB"]
LM_HRB_Collections_GetPrices,Button,Xpath,//*[@id="tui_inventoryGetPriceB_view_InventoryGetPriceModal_0"]



OR_RoomsBoard_ExtraPage,TextBox,xpath,//h1
OR_ExtrasPage,TextBox,xpath,//h1
OR_HolidaySummary_Header,TextBox,xpath,//h1
OR_Passengers_Header,TextBox,xpath,//h1

OR_Flights_YourFlights,TextBox,xpath,"//h2[contains(text(),'YOUR FLIGHTS')]|//h1"




OR_FO_SearchPanelDepartingDate,Button,Xpath,(//table[@class='datepickertable cal-table first-month']//td[@class='datepicker-day date-text-indent cal-cell']/a)[1]
OR_FO_SearchPanelReturnDate,Button,Xpath,(//td[@class='arrival-datepicker-day date-text-indent arrival-cal-cell'][//table[@class='datepickertable cal-table first-month']/tbody/tr/td])[1]
ORFO_OneWaySelection,Button,Xpath,//*[@id='two-way']/li[2]
OR_Cruise_SearchPanelWhen,Button,Xpath,(//*[text()='Select'])[1]
OR_Cruise_SearchPanelMonthSelection,Button,Xpath,.//*[@id='tui_widget_ScrollPanel_0']//li[@class='active']
OR_Cruise_SearchPanelSearchButton,Button,Xpath,//*[text()='earch']
OR_Cruise_SearchPanelSearchButtonCS,Button,Xpath,//*[text()='earch']
OR_Cruise_SearchPanelSearchButtonSC,Button,Xpath,//*[text()='earch']
OR_Cruise_SearchPanelSearchButtonBB,Button,Xpath,//*[text()='earch']
OR_Cruise_SearchPanelSearchButtonR,Button,Xpath,//*[text()='earch']
OR_Cruise_SearchPanelSearchButtonFC,Button,Xpath,//*[text()='earch']
OR_Cruise_SearchResultsMoreDetailsButton,Button,Xpath,(//a[text()='More details'])[1]
OR_Cruise_SearchResultsChooseOptions,Button,Xpath,".//*[@id='tui_summaryPanel_view_TraverseRepoPanel_0']/div/a[contains(@class,'ensLinkTrack')]"
OR_Cruise_SearchPanel_CruiseandStayPicker,Button,Xpath,.//*[@id='cruiseAndStayPicker']
OR_Cruise_SearchPanel_7NightsCruiseandStaySelection,Button,Xpath,(//*[@name='7 Nights Cruise then stay'])[1]
OR_Cruise_SearchPanel_7NightsStayAndCruiseSelection,Button,Xpath,(//*[@name='7 Nights Stay then Cruise'])[1]
OR_Cruise_SearchPanel_CruiseDuration,Button,Xpath,(.//*[@id='duration'])[1]
OR_Cruise_SearchPanel_CruiseDuration_Back2Back_Value,Button,Xpath,//li[@datavalue='8-14']
OR_Cruise_SearchPanel_CruiseDuration_Repositional_Value,Button,Xpath,//li[@datavalue='15-30']
OR_FCSearchPanel_SearchButton,Button,xpath,//a[text()='Search']
OR_THSearchPanel_SearchButton,Button,xpath,//a[text()='Search']
OR_FHSearchPanel_SearchButton,Button,xpath,//a[text()='Search']
OR_FO1SearchPanel_SearchButton,Button,xpath,//a[text()='Search']
ORFH_FO2SearchPanel_SearchButton,Button,xpath,//a[text()='Search']

OR FOR SEARCH RESULTS PAGE,,,
ORFH_SearchResults_Continue,Button,xpath,"(//div[contains(@class,'ResultsListItem__continue')])[1]"
OR_SearchResults_Continue1,Button,xpath,.//*[@id='tui_singleAccom_view_FlightGroup_0']//a[text()='continue']

OR FOR ACCOMMODATION PAGE,,,
OR_Accom_TabRoomBoard,Button,xpath,"//a[contains(@href,'roomoptions')]"
OR_Accom_TabFlightOptions,Button,xpath,"//a[contains(@href,'flightoptions') and @class='book-item quarter']"
OR_Accom_TabTransferExtra,Button,xpath,"//a[contains(@href,'extraoptions')]"
OR_Accom_TabSummary&Book,Button,Xpath,"//a[contains(.,'Summary & Book')]"
OR_Accom_HotelContinune,Button,Xpath,".//*[@id='searchResults']//li[1]//a[contains(@class,'button cta jumbo ensLinkTrack')]"
OR_Accom_HotelDetailsContinue,Button,Xpath,.//*[@id='tui_summaryPanel_view_TraverseRepoPanel_0']//span
OR_Cruise_AccommodationResultsPage,Button,Xpath,(//a[text()='Continue'])[1]
OR_Cruise_AccommodationDetailsPage_CruiseOptionsButton,Button,Xpath,//*[text()='Cruise Options']
OR_Accom_TabRoomBoard1,Button,xpath,"//a[contains(@href,'roomoptions')]"
ORFH_Accom_TabFlightOptions1,Button,xpath,"//h4[contains(text(),'Flights')]"
OR_Accom_TabTransferExtra1,Button,xpath,"//a[contains(@href,'extraoptions')]"
OR_Accom_TabSummary&Book1,Button,Xpath,"//a[contains(.,'Summary & Book')]"
ORTH_Accomodation_SummaryAndBook,Button,Xpath,"//a[contains(text(),'Summary & Book')]"

OR FOR ITINERARY DETAILS PAGE,,,
OR_Cruise_ItineraryDetailsCruiseOptionsButton,Button,Xpath,//span[text()='Cruise Options']
OR_Cruise_ItineraryDetails_ChooseHotelButton,Button,Xpath,//*[Text()='Choose Hotels']

OR FOR ACCOMMODATION PAGE,,,
OR_CruiseOptions_CabinOptions,Button,Xpath,//button[text()='CHANGE']
OR_CruiseOptions_CabinOptionsAddCabin,Button,Xpath,//button[text()='+ ADD CABIN']
OR_CruiseOptions_CabinOptionsChangeCabin,Button,Xpath,".//*[@id='alternative-room-container']//*[(contains(@class,'withPrice'))]"
OR_CruiseOptions_CabinOptionsChangeBoard,Button,Xpath,".//*[@id='boardBasis-seat']//span[not(contains(@class,'button-selected'))][contains(@class,'withPrice')]"
OR_Cruise_CruiseOptionsContinueBookingButton,Button,Xpath,"//a[contains(text(),'CONTINUE')]"

OR FOR FLIGHT OPTIONS PAGE,,,
OR_Flights_Continue,Button,Xpath,"//a[contains(text(),'CONTINUE')]"
ORFH_Flights_YourFlights,TextBox,xpath,"//h2[contains(text(),'YOUR FLIGHTS')]"
ORFO_Flights_YourFlights,TextBox,xpath,"//h2[contains(text(),'Your Flight')]"
OR_Flights_Thanks,Button,xpath,"//div[contains(@class,'popup extras-popup-overlay hide')]//p[contains(text(),'NO THANKS')]"
OR_Flights_RandomSeatExtraSelection,Button,Xpath,.//*[@class='chooseSeatSection']
OR_Flights_RandomBaggageSelection,Button,Xpath,".//*[@class='luggage-limit']//p[contains(@class,'bag-Price')]"
OR_Flights_ViewAllAlternativesButton,Button,Xpath,.//*[text()='VIEW ALL ALTERNATIVES']
OR_Flights_AlternateAirportTab,Button,Xpath,.//*[@class='tabs airport-choice-menu']//li[@class='airport-standard']
OR_Flights_AlternateAirportSelection,Button,Xpath,//*[@class='alternate-flights-section']//button
OR_Flights_Continue1,Button,Xpath,//a[@id='tui_widget_booking_flightoptions_view_LastChanceAncillary_0']
OR_CRSTAYFlights_Continue1,Button,Xpath,//a[@id='tui_widget_booking_flightoptions_view_LastChanceAncillary_0']
OR_FOFlights_Continue1,Button,Xpath,//a[@id='tui_widget_booking_flightoptions_view_LastChanceAncillary_0']
OR_CRFlights_Continue1,Button,Xpath,//a[@id='tui_widget_booking_flightoptions_view_LastChanceAncillary_']
OR_Flights_Room&board_tab,Button,xpath,//*[text()='Room & Board']
OR FOR ROOM OPTIONS PAGE,,,
OR_RoomsBoard_Continue,Button,Xpath,"//a[contains(text(),'CONTINUE')]"
ORFH_RoomsBoard_Continue1,Button,Xpath,"//a[contains(text(),'CONTINUE')]"
OR_RoomsBoard_Extra_Tab,Button,Xpath,//*[text()='Transfers & Extras']
OR FOR EXTRAS OPTIONS PAGE,,,
OR_Extras_Continue,Button,Xpath,"//a[contains(text(),'CONTINUE BOOKING')]"
OR_Extras_InsurancePopUp,Button,xpath,html//div[@id="checkBox-Overlay-insurance"]//a[@id="checkBoxArrangeInsurance"]
OR_ExtrasPage_InsurancePopupWeb,Button,Xpath,.//*[@id='checkBoxArrangeInsurance']
ORFH_Extras_Continue1,Button,xpath,"//a[contains(text(),'CONTINUE')]|//*[contains(text(),'Summary & Book')]"
OR_CRExtras_Continue1,Button,Xpath,"//a[contains(text(),'CONTINUE')]"
OR_HolidaySummary_Continue,Button,xpath,//*[@class='PriceDiscountBreakDown__continue']//*[text()='Book now']
OR FOR PASSENGER DETAILS PAGE,,,
OR_Passenger_Continue,Button,Xpath,"//*[contains(text(),'CONTINUE')]"
OR_Passenger_LeadTitle,Button,Xpath,".//*[@id='tui_widget_form_SelectOption_0']//span[contains(@class,'value')]"
OR_Passenger_LeadTitleMR,Button,Xpath,//select[@id='title0']/option[2]
OR_Passenger_LeadFirstName,TextBox,Xpath,//input[@id='first-name']
OR_Passenger_LeadSurName,TextBox,Xpath,//input[@id='last-name']
OR_Passenger_DOB,TextBox,Xpath,//input[@id='dob0']
ORFH_Passenger_DOBDAY,TextBox,Xpath,//*[@id='day0']
ORFH_Passenger_DOBMonth,TextBox,Xpath,//*[@id='month0']
ORFH_Passenger_DOBYear,TextBox,Xpath,//*[@id='year0']
OR_Passenger_AddressHNo,TextBox,Xpath,//input[@id='address-one']
OR_Passenger_AddressAddressLine1,TextBox,Xpath,//input[@id='address-two']
OR_Passenger_AddressAddressLine2_Optional,TextBox,Xpath,//input[@id='address-three']
OR_Passenger_AddressCity,TextBox,Xpath,//input[@id='city-town']
OR_Passenger_AddressCounty,TextBox,Xpath,//input[@id='county']
OR_Passenger_AddressPostalCode,TextBox,Xpath,//input[@id='postcode']
OR_Passenger_AddressTelephone,TextBox,Xpath,//input[@id='tel']
ORFH_Passenger_AddressEmailAddress,TextBox,Xpath,//input[@id='email']
OR_Passenger_AddressConfirmEmailAddress,TextBox,Xpath,//input[@id='confirmationEmail']
OR_Passenger_Adult2Title,Button,Xpath,//select[@id='title1']
OR_Passenger_Adult2TitleMR,Button,Xpath,//*[@id='title1']/option[2]
OR_Passenger_Adult2FirstName,TextBox,Xpath,//input[@id='first-name-c1']
OR_Passenger_Adult2SurName,TextBox,Xpath,//input[@id='last-name-c1']
OR_Passenger_ImportantInformation,CheckBox,Xpath,//span[@name='importantInformationChecked']
CRMP_Passengers_passengerDetails,,,
OR_Passengers_TitleArrow,DropDown,xpath,//div[@class='selectDropDown']//span[@class='arrow']
OR_Passengers_Firstname,TextBox,xpath,"//form[@id='passengerDetailsform']//input['firstName'=substring(@name,string-length(@name)-string-length('firstName')+1)]"
OR_Passengers_Lastname,TextBox,xpath,"//form[@id='passengerDetailsform']//input['lastName'=substring(@name,string-length(@name)-string-length('lastName')+1)]"
OR_Passengers_HNO,TextBox,id,tui_widget_form_ValidationTextBox_1
OR_Passengers_Address1,TextBox,id,tui_widget_form_ValidationTextBox_2
OR_Passengers_Address2,TextBox,id,tui_widget_form_ValidationTextBox_3
OR_Passengers_Town,TextBox,id,tui_widget_form_ValidationTextBox_4
OR_Passengers_Country,TextBox,id,tui_widget_form_ValidationTextBox_5
OR_Passengers_PostCode,TextBox,id,tui_widget_form_ValidationTextBox_6
OR_Passengers_Telephone,TextBox,id,tui_widget_form_ValidationTextBox_7
OR_Passengers_Mail,TextBox,id,tui_widget_form_ValidationTextBox_8
OR_Passengers_ConfirmMail,TextBox,id,tui_widget_form_ValidationTextBox_9
OR_Passenger_DOB,TextBox,xpath,"//input['dob'=substring(@name,string-length(@name)-string-length('dob')+1)]"
OR_Passengers_ConfirmCheckbox,CheckBox,xpath,//div[@class="item open"]//label[@for="impInfoCheckbox"]/span
OR_Passengers_passengerDetails,TextBox,xpath,//div[@id="passengerDetailsPanel"]//div[@class="sub-title"]
ORFH_Passengers_Continue,Button,xpath,"//a[contains(text(),'CONTINUE')]"
OR_Cruise_PassengerDeatilsContinueBookingButton,Button,Xpath,//*[text()='Confirm Booking']

OR FOR PAYMENT PAGE,,,
OR_Payment_CardNum,TextBox,Xpath,//input[@id='cardNumber']
OR_Payment_CardTypeDD,TextBox,Xpath,//*[@id='payment_type_debit']
OR_Payment_CardTypeName,TextBox,Xpath,//*[@id='payment_type_debit']/option[2]
OR_Payment_CardName,TextBox,Xpath,//input[@id='cardName']
OR_Payment_ExpiryMonth,Button,Xpath,//select[@id='expiryDateMM']
OR_Payment_ExpiryMonth_Value,Button,Xpath,//select[@id='expiryDateMM']/option[5]
OR_Payment_ExpiryYear,Button,Xpath,//select[@id='expiryDateYY']
OR_Payment_ExpiryYear_Value,Button,Xpath,//select[@id='expiryDateYY']/option[4]
OR_Payment_SecurityCode,TextBox,Xpath,//input[@id='securityCode']
OR_Payment_TermsConditions,CheckBox,Xpath,//span[@class='radio check confirm']
ORFH_Payment_BookThisHoliday,Button,Xpath,//input[@type='submit']|//input[@id='paypalbutton']
OR_Payment_CardNumNonResponsive,TextBox,Xpath,//input[@id='cardNumber']
OR_Payment_CardNameNonResponsive,TextBox,Xpath,//input[@id='cardholderName']
OR_Payment_ExpiryMonthNonResponsive,Button,Xpath,//select[@id='FieldExpiryDateMonth']
OR_Payment_ExpiryMonthValueNonResponsive,Button,Xpath,//select[@id='FieldExpiryDateMonth']/option[5]
OR_Payment_ExpiryYearNonResponsive,Button,Xpath,//select[@id='FieldExpiryDateYear']
OR_Payment_ExpiryYearValueNonResponsive,,,//select[@id='FieldExpiryDateYear']/option[4]
OR_Payment_SecurityCodeNonResponsive,TextBox,Xpath,//input[@id='cvv']
OR_Payment_TermsConditionsNonResponsive,TextBox,Xpath,(//*[@name='agreeTermAndCondition']//following::span)[1]
ORFH_Payment_BookThisHolidayNonResponsive,TextBox,Xpath,//*[text()='Book this Holiday']
ORFH_Payment_CardNumber,TextBox,Xpath,//*[@id="cardNumber"]
OR_Payment_CardHolderName,TextBox,Xpath,//*[@id="cardholderName"]
OR_Payment_Security,TextBox,Xpath,//*[@id="cvv"]
OR_Payment_CheckBox,CheckBox,xpath,//*[@name="agreeTermAndCondition"]/../label/span
OR_Payment_Continue,Button,xpath,//button[@id='payButtonID']
OR_Payment_ExpMonth,Select,id,FieldExpiryDateMonth
OR_Payment_ExpYear,Select,id,FieldExpiryDateYear

OR FOR CONFIRMATION PAGE,,,
OR_Confirmation_DestinationName,TextBox,Xpath,.//*[@id='sidebar']//p[1]
OR_Confrimation_DepDate,TextBox,Xpath,.//*[@id='sidebar']//li[5]
OR_Confirmation_ReturnDate,TextBox,Xpath,.//*[@id='sidebar']//li[6]
OR_Confirmation_LeadDetails,TextBox,Xpath,.//*[@id='main']/div[1]//p[1]
ORFH_BookingConfirmation_BookingRefText,TextBox,xpath,"//p[contains(text(),'Booking Reference Number')]"
ORFH_BookingConfirmation_BookRefNum,TextBox,xpath,"//p[contains(text(),'Booking Reference')]/span"

OR FOR CA APPLICATION,,,
OR_CA_ViewAllBookings,Button,Xpath,"//a[contains(text(),'View all bookings')]"
OR_CA_BookingOverViewButton,Button,Xpath,"(//*[contains(text(),'Departing Sat 01 July 2017')]//following::a[contains(text(),'View Booking')])[1]"
OR_CA_LoginEmail,TextBox,Xpath,.//*[@id='email']
OR_CA_LoginPassword,TextBox,Xpath,.//*[@type='password']
OR_CA_SignInButton,Button,Xpath,.//*[@id='tui_widget_customerAcc_SubmitForm_0']
OR_Confirmations_CALogin,Button,Xpath,"(//span[contains(text(),'Account')])[3]"
OR_Confrimation_CALoginMenu,Button,Xpath,"(//span[contains(text(),'Your account')])[2]"

OR FOR AMEND AND CANCEL APPLICATION,,,
OR_A&C_IntegrationBookingRef,Button,Xpath,"//p[contains(text(),'Booking reference number')]/span"
OR_A&C_IntegrationShowFlightsOptions,Button,Xpath,//div[@id='FLIGHT']
OR_A&C_IntegrationSeatingOptions,Button,Xpath,.//*[@id='Seating-component']//div/span
OR_A&C_IntegrationSeatingOptions_Price,Button,Xpath,.//*[@class='price-section fr text-r']
OR_A&C_IntegrationSeatingOptions_Name,Button,Xpath,.//*[@id='Seating-component']//h2
OR_A&C_IntegrationPriceBreakDown,TextBox,Xpath,.//*[@id='summary-panel']//li
OR_A&C_IntegrationReviewChangesButton,TextBox,Xpath,//a[text()='REVIEW CHANGES']
OR_A&C_IntegrationNonLead_EditLinks,TextBox,Xpath,.//*[@id='nonlead-pax-com']//a
OR_A&C_IntegrationNonLeadFirstName_Adult2,TextBox,Xpath,.//*[@id='first-name1']
OR_A&C_IntegrationNonLeadLNameAdult2,TextBox,Xpath,.//*[@id='last-name1']
OR_A&C_IntegrationNonLeadDoBAdult2,TextBox,Xpath,.//*[@id='dob1']
OR_A&C_IntegrationNonLeadApply,Button,Xpath,//a[text()='APPLY']
OR_A&C_IntegrationNonLeadCancel,Button,Xpath,//a[text()='CANCEL']
OR_A&C_IntegrationReview&ComparisionScreen,TextBox,Xpath,.//*[@id='tui_widget_globalHeader_menu_Navigation_0']/div[2]/div[1]/div
OR_A&C_IntegrationBookThisHoliday,Button,Xpath,//a[text()='BOOK THIS HOLIDAY']
OR_A&C_IntegrationMakeMoreAmendmentsButton,Button,Xpath,//a[text()='MAKE MORE AMENDMENTS']
OR_A&C_ConfirmationPageTitle,TextBox,Xpath,"//*[contains(text(),'YOUR AMENDMENT IS COMPLETE')]"
OR_A&C_ConfirmationPageBackToMyBookingButton,Button,Xpath,.//*[@id='main']//a
OR_A&C_ConfirmationPageBookingRef,TextBox,Xpath,.//*[@id='main']//span

OR FOR NON RESPONSIVE FO FLIGHT SEARCH,,,
ORFH_NonResponsive_FlyingFrom,Button,Xpath,.//*[@id='where-from-text']
ORFH_NonResponsive_FlyingFromUKAirports,Button,Xpath,.//*[@id='ukairportsContainer']//div//li
OR_NonResponsive_FlyingFromUKAirportsAirportListOverlay,Button,Xpath,.//*[@id='airport-list-overlay']
OR_NonResponsive_FlyingFromOverseasAirport,Button,Xpath,.//*[@id='overseasContainer']/div//ul/li
ORFH_NonResponsive_FlyingTo,Button,Xpath,.//*[@id='where-to-text']
ORFH_NonResponsive_FlyingToOverseasAirport,Button,Xpath,.//*[@id='arrivalOverseasContainer']/div//ul/li/label
OR_NonResponsive_FlyingToUKAirport,Button,Xpath,.//*[@id='arrivalUkairportsContainer']//div/ul/li
OR_NonResponsive_Departure,Button,Xpath,.//*[@id='when']
OR_NonResponsive_DepartureDateSelection,Button,Xpath,//td[@class!='datepicker-day date-text-indent cal-cell disabled unavailable past'][//*[@id='flights']//tr//td]
OR_NonResponsive_ReturnDate,Button,Xpath,.//*[@id='returnTravel']
OR_NonResponsive_ReturnDateSelection,Button,Xpath,.//*[@analytics-text='ReturnGrid']//tr//td
OR_NonResponsive_SearchButton,Button,Xpath,//a[text()='Search']

OR FOR FO SEARCH RESULTS GRID,,,
OR_FO_SearchResults_Grid,Button,Xpath,.//*[@id='searchResultContainer']//div//span/span[2]
OR_NonResponsive_SearchResultsContinueButton,Button,Xpath,(//input[@type='submit'])[1]

OR FOR NON RESPONSIVE FLIGHT OPTIONS PAGE,,,
OR_NonResponsive_FlightOptionsPageNothanks,Button,Xpath,//p[text()='NO THANKS']

OR FOR NON RESPONSIVE PASSENGER DETAILS PAGE,,,
OR_NonResponsive_PassengerdetailsPageContinueBooking,Button,Xpath,"//span[contains(text(),'Continue')]"
OR_NonResponsive_PassengerdetailsPageLeadTitle,Button,Xpath,.//*[@id='tui_widget_form_SelectOption_0']
OR_NonResponsive_PassengerdetailsPageLeadTitleSelection,Button,Xpath,(.//*[@datavalue='MR'])[1]
ORFH_NonResponsive_PassengerdetailsPageLeadFirstName,TextBox,Xpath,".//*[contains(@name,'.firstName')]"
ORFH_NonResponsive_PassengerdetailsPageLeadLastName,TextBox,Xpath,".//*[contains(@name,'.lastName')]"
OR_NonResponsive_PassengerdetailsPageLeadHouseNum,TextBox,Xpath,.//input[@name='houseNum']
OR_NonResponsive_PassengerdetailsPageLeadAddress1,TextBox,Xpath,.//*[@name='address1']
OR_NonResponsive_PassengerdetailsPageLeadTown,TextBox,Xpath,.//*[@name='town']
OR_NonResponsive_PassengerdetailsPageLeadCounty,TextBox,Xpath,.//*[@name='county']
OR_NonResponsive_PassengerdetailsPageLeadPostCode,TextBox,Xpath,.//*[@name='postCode']
OR_NonResponsive_PassengerdetailsPageLeadTelephoneNum,TextBox,Xpath,.//*[@name='telephoneNum']
OR_NonResponsive_PassengerdetailsPageLeadEmail,TextBox,Xpath,.//*[@name='email']
OR_NonResponsive_PassengerdetailsPageLeadConfirmationEmail,TextBox,Xpath,.//*[@name='confirmationEmail']
OR_NonResponsive_PassengerdetailsPageAdult2Title,Button,Xpath,.//*[@id='tui_widget_form_SelectOption_3']
OR_NonResponsive_PassengerdetailsPageAdult2FirstName,TextBox,Xpath,.//*[@id='tui_widget_form_ValidationTextBox_10']
OR_NonResponsive_PassengerdetailsPageAdult2SurName,TextBox,Xpath,.//*[@id='paxInfoFormBeanlastName1']
OR_NonResponsive_PassengerdetailsPageImportantInNonResponsivermation,CheckBox,Xpath,.//*[@id='impInfoCheckbox']

OR FOR NON RESPONSIVE PAYMENT PAGE,,,
OR_NonResponsive_PaymentPageCardHolderName,TextBox,Xpath,//input[@id='cardholderName']
OR_NonResponsive_PaymentPageSecurityCode,TextBox,Xpath,.//*[@id='cvv']
OR_NonResponsive_PaymentPageExpiryMonth,Button,Xpath,.//*[@id='FieldExpiryDateMonth']
OR_NonResponsive_PaymentPageExpiryMonthSelection,Button,Xpath,.//*[@id='FieldExpiryDateMonth']/option
OR_NonResponsive_PaymentPageExpiryYear,Button,Xpath,.//*[@id='FieldExpiryDateYear']
OR_NonResponsive_PaymentPageExpiryYearSelection,Button,Xpath,.//*[@id='FieldExpiryDateYear']/option
OR_NonResponsive_PaymentPageBook&Pay,Button,Xpath,//button[text()='BOOK AND PAY']
OR_NonResponsive_PaymentPageTerms&Conditions,CheckBox,Xpath,.//*[@class='checkState']

OR FOR RETAIL APPLICATION,,,
OR_RetailLogin_UserName,TextBox,Xpath,//input[@id='user-id']
OR_RetailLogin_Password,TextBox,Xpath,//input[@id='userpassword']
OR_RetailLogin_LoginButton,Button,Xpath,//input[@id='submit-button']
OR_RetailLogin_AgentNumber,TextBox,Xpath,//input[@id='agent-number']
OR_RetailLogin_AgentRef,TextBox,Xpath,//input[@id='agent-reference']

OR_Retail_GlobalheaderAgentName,Button,Xpath,//span[text()='DCUST']
OR_Retail_GlobalHeaderLogout,Button,Xpath,//span[text()='Logout']
OR_Retail_GlobalHeaderFlag,TextBox,Xpath,//img[@src='https://static.thomson.co.uk/static-images/images/uk_flag.png']
OR_Retail_GlobalHeaderNextCustomer,Button,Xpath,//span[text()='Next Customer']

OR_Retail_HomePageAO,CheckBox,Xpath,//input[@name='AO']
OR_Retail_HomePageOnewaySelection,Button,Xpath,//li[@data-value ='oneWay']

OR_Retail_SearchPanelDepartureDate,Button,Xpath,(//td[@class='datepicker-day text-center cal-cell'][//*[@id='retail']//tr//td/a])[1]
OR_Retail_SearchPanelFlyingFrom,Button,Xpath,.//*[@id='where-from']
OR_Retail_SearchPanelFlyingFromAirport,CheckBox,Xpath,.//*[@id='wrapper']//label/input
OR_Retail_SearchPanelWhereTo,Button,Xpath,.//*[@id='where-to']
OR_Retail_SearchPanelAirportListLink,Button,Xpath,//*[text()='Airport List ']
OR_Retail_SearchPanelWhereToDestinationList,Button,Xpath,.//*[@id='tui_searchBPanel_view_DestinationGuide_0']
OR_Retail_SearchPanelWhereToDestinationListSelection,Button,Xpath,//span[@class='match']/strong

OR_Retail_AccommodationDetailsPageContinueButton,Button,Xpath,//span[text()='Continue']

OR_Retail_PassengerDetailsPageContinueButton,Button,Xpath,.//*[@id='passengerDetailsSubmitButton']
OR_Retail_PassengerDetailsPageImportantInformation,CheckBox,Xpath,.//*[@id='impInfoCheckbox']
OR_Retail_PassengerDetailsPageSourceCode,Button,Xpath,//span[text()='Agent Booking']
OR_Retail_PassengerDetailsPageSubSourceCode,Button,Xpath,//span[text()='Please select']
OR_Retail_PassengerDetailsPageAdult2Title,Button,Xpath,.//*[@id='tui_widget_form_SelectOption_2']
OR_Retail_PassengerDetailsPageAdult2TitleSelection,Button,Xpath,(.//*[@datavalue='MR'])[2]
OR_Retail_PassengerDetailsPageSubSourceCodeSelection,Button,Xpath,//li[text()='Agent/Shop booking']
OR_Retail_PassengerDetailsPagedoB,Button,Xpath,.//*[@id='tui_widget_form_ValidationTextBox_9']
OR_Retail_PassengerdetailsPageMPConfirm,TextBox,Xpath,//a[text()='Confirm']

OR_Retail_NextCustomerResetForNextCustomer,Button,Xpath,//a[text()='RESET FOR NEXT CUSTOMER']
OR_Retail_NextCustomerCancel,Button,Xpath,//a[text()='CANCEL']
OR_Retail_NextCustomerClose,Button,Xpath,//a[@class='close sprite-img-grp-1']

OR_Retail_ConfirmationPageRapidRef,TextBox,Xpath,(//*[@class='visionNumber']//following::p)[1]
OR_Retail_ConfirmationPageBookingRef,TextBox,Xpath,(//*[@class='detailsConfirmation']//following::b)[1]
OR_Retail_ConfirmationPageTotalHolidayPrice,TextBox,Xpath,(//*[@class='detailsConfirmation']//following::b)[2]

OR FOR SUMMARY PAGE(For the new UI),,,
ORTH_Summary_BookNow,Button,Xpath,(//a[text()='Book Now'])[1]

ORFH_LM_BottomRightMerch,Link,Xpath,".//*[contains(@id,'tui_widget_responsiveHomepage_GridHeightSetter')]/div/div/ul/li[1]/div/div[2]/div"
ORFH_LM_BottomLeftMerch,Link,Xpath,".//*[contains(@id,'tui_widget_responsiveHomepage_GridHeightSetter')]/div/div/ul/li[2]/a/div/div[2]/div"
ORFH_LM_Blog,Link,Xpath,".//*[@id='utility']//li[contains(@class,'social')]/a"
ORFH_LM_HeroGallerySection,Link,Xpath,".//*[@id='hero-banner']//img[contains(@alt,'hero')]"
ORFH_LM_Lakes&MountainsTAB,Link,Xpath,".//*[@id='the-main-menu']//a[contains(text(),'LAKES & MOUNTAINS')]"
ORFH_LM_Lakes&MountainsMegaMenu,Link,Xpath,".//*[@id='site-LAKES & MOUNTAINS']//div[contains(@class,'mega-title')]"
OR_LM_Falcon_WhereToAnchorTag,Link,Xpath,.//a[@class='dest-list-trigger']
OR_LM_Falcon_WhereToDoneButton,Link,Xpath,"//a[contains(text(),'Done')]"
ORFH_LM_Falcon_Passenger_PostCode,TextBox,Xpath,".//input[contains(@class,'postCode')]"
ORFH_LM_Payment_ConfirmCheckbox,Button,Xpath,.//*[@id='customer-form']/div[6]/div[2]/div[3]/span[1]/span
LM_Main_Type_Filter,Link,Xpath,.//*[@id='type-filter']/div[1]/a
LM_Main_Type_Filter_Brand,Label,Xpath,.//*[@id='tui_filterBPanel_view_options_General_0']/ul/li[1]/h3
LM_Main_Type_Filter_Collections,Label,Xpath,.//*[@id='tui_filterBPanel_view_options_General_0']/ul/li[2]/ul
LM_Main_Type_Filter_BestFor,Label,Xpath,.//*[@id='tui_filterBPanel_view_options_General_0']/ul/li[3]/h3
LM_Main_Type_Filter_Chkbx_Brnd,Button,Xpath,.//*[@id='tui_filterBPanel_view_options_General_0']/ul/li[1]/ul/li/span/input
LM_Main_Type_Filter_Chkbx_LM,Button,Xpath,.//*[@id='tui_filterBPanel_view_options_General_0']/ul/li[2]/ul/li/span
LM_Main_Type_Filter_Chkbx_LM_Pltnm,Button,Xpath,.//*[@id='tui_filterBPanel_view_options_General_0']/ul/li[2]/ul/li[2]/span
LM_Main_Type_Filter_Chkbx_Walking,Button,Xpath,.//*[@id='tui_filterBPanel_view_options_General_0']/ul/li[3]/ul/li/span
LM_Main_Type_Filter_Chkbx_LM_LKResort,Button,Xpath,.//*[@id='tui_filterBPanel_view_options_General_0']/ul/li[3]/ul/li[2]/span
LM_Main_Type_Filter_Clear,Link,Xpath,.//*[@id='tui_searchBResults_view_ClearFilters_0']
LM_Main_Type_Filter_Close_Flyout,Link,Xpath,.//*[@id='tui_filterBPanel_view_options_General_0']/div[1]/a
LM_SearchResult_OneResult,TextBox,Xpath,.//*[@id='searchResults']/div[2]/div[1]/ul/li[1]
LM_Product_Image_OnSearch,TextBox,Xpath,.//*[@id='tui_searchBResults_view_Tooltips_11']
LM_Product_Parameter,TextBox,Xpath,//*[@class='image-container']/span
ORFH_Search_Shortlist,Button,xpath,//div[@class='product-list']//ul//li[1]//a[@class="button shortlist"]
ORFH_Search_Toggle,Button,xpath,"//div[@id=""tui_filterBPanel_view_BudgetToggle_0""]//div[contains(@class,""toggle-slide"")]"
ORFH_Search_SortFilter,Button,xpath,//div[@id="search-result-sortfilter"]
ORFH_Search_SortFilterTextByDefault,TextBox,xpath,//div[@id="search-result-sortfilter"]/a/span[1]
ORFH_Search_PerPrice,TextBox,xpath,//div[@class='product-list']//ul//li[1]//p[@class='price']/span[2]
ORFH_Search_TotalPrice,TextBox,regex,"""totalPrice"":""(.+?)""^^1"
ORFH_Search_AccomName,TextBox,xpath,//div[@class='product-list']//ul//li[1]//div/div/div/div[1]/div[1]/h4/a
ORFH_Search_BoardName,TextBox,xpath,//div[@class='product-list']//ul//li[1]//div[@class='divider more-details']//li[@class='board']/span
ORFH_Search_Continue,Button,xpath,(//a[text()='continue'])[1]
ORFH_Accom_Aboutthehotel,TextBox,Xpath,"//h3[contains(text(),'ABOUT THE HOTEL')]"
ORFH_Accom_PerPrice,TextBox,xpath,//div[@class="primary"]//span[@class="price"]
ORFH_Accom_TotalPrice,TextBox,xpath,//div[@class="secondary"]//a
ORFH_Accom_AccomName,TextBox,xpath,//div[@class="dis-inblock marg-bottom-10"]//h1
ORFH_Accom_BoardName,TextBox,xpath,.//*[@id='summary-panel']/div/div[1]/div/ul/li[2]/span[1]
ORFH_Accom_OverviewTab,TextBox,xpath,"//ul[@id='navTabs']//a[contains(text(),'Overview')]"
ORFH_Accom_LocationTab,TextBox,xpath,"//ul[@id='navTabs']//a[contains(text(),'Location')]"
ORFH_Accom_ThingsToDoTab,TextBox,xpath,"//ul[@id='navTabs']//a[contains(text(),'Things To Do')]"
ORFH_Accom_FacilitiesText,TextBox,xpath,"//ul[@id='navTabs']//a[contains(text(),""Facilities"")]"
ORFH_Accom_OverviewText,TextBox,xpath,"//ul[@id='navTabs']//a[contains(text(),'Overview')]"
THRes_Accom_RoomText,TextBox,xpath,"//ul[@id='navTabs']//a[contains(text(),'Rooms')]"
ORFH_Accom_FacilitiesText,TextBox,xpath,"//ul[@id='navTabs']//a[contains(text(),""Facilities"")]"
ORFH_Accom_LocationText,TextBox,xpath,"//ul[@id='navTabs']//a[contains(text(),'Location')]"
ORFH_Accom_ThingsToDoText,TextBox,xpath,"//ul[@id='navTabs']//a[contains(text(),'Things To Do')]"
THRes_Accom_PerPrice,TextBox,xpath,//div[@class="primary"]//span[@class="price"]
THRes_Accom_TotalPrice,TextBox,xpath,//div[@class="secondary"]//a
THRes_Accom_AccomName,TextBox,xpath,//div[@class="dis-inblock marg-bottom-10"]//h1
THRes_Accom_BoardName,TextBox,xpath,.//*[@id='summary-panel']/div/div[1]/div/ul/li[2]/span[1]
ORFH_Accom_InboundDepDate,TextBox,xpath,//span[@class="summary-text"]//span[1]
ORFH_Accom_Continue,Button,xpath,.//*[@id='summary-panel']/div/div[2]/div/div[2]/a
ORFH_Flights_YourFlights,TextBox,xpath,"//h1[contains(text(),'YOUR FLIGHTS')]"
ORFH_Flight_HolidaySummary,Button,Xpath,"(//span[contains(text(),'Holiday Summary')])[1]"
ORFH_Flight_HolidaySummaryClose,Button,Xpath,(//h3[@class='close-title'])[2]
ORFH_Flights_PerPrice,TextBox,xpath,(//span[@class="per-person-price"])[1]
ORFH_Flights_TotalPrice,TextBox,xpath,(//span[@class="part1"])[1]
ORFH_Flights_AccomName,TextBox,xpath,//div[@class="sum_head_pac_wrap"]//p[@class="title"]
ORFH_Flights_BoardName,TextBox,regex,"""boardBasisName"":""(.+?)""^^1"
ORFH_Flights_InboundDepDate,TextBox,xpath,(//span[@class='dep-date-cap'])[1]
ORFH_Flights_SeatsDescription,TextBox,Xpath,".//h2[contains(text(),'seats')]"
ORFH_Flights_SeatsDescription_Select,TextBox,Xpath,".//p[contains(text(),'Select Your Seat')]"
ORFH_Flights_LuggageDescription,TextBox,Xpath,".//h2[contains(text(),'LUGGAGE')]|.//h2[contains(text(),'Luggage Allowance')]"
ORFH_FlightExtras_SeatSelection,Link,Xpath,.//*[@id='tui_widget_bookflow_views_flightOptions_Seats_0']//*[@class='radio check agree']
ORFH_FlightExtras_LuggageSelection,Link,Xpath,".//*[@id='tui_widget_bookflow_views_flightOptions_BaggageAllowanceResponsive_0']//span[contains(@class,'radio')]"
ORFH_Flights_SpecialAssistanceSection,TextBox,xpath,"//h2[contains(text(),'Assistance')]"
ORFH_Flights_AltFlightsDurSection,TextBox,xpath,"//h2[contains(text(),'Flight details')]"
ORFH_Flights_Continue,Button,xpath,"//a[contains(text(),'CONTINUE')]"
ORFH_Room_Hoteloptions,TextBox,Xpath,"//h1[contains(text(),'HOTEL OPTIONS')]"
ORFH_Rooms_PerPrice,TextBox,xpath,(//span[@class='per-person-price'])[1]
ORFH_Rooms_TotalPrice,TextBox,xpath,(//div[@class='total-price'])[1]
ORFH_Rooms_AccomName,TextBox,xpath,//div[@class="sum_head_pac_wrap"]//p[@class="title"]
ORFH_Rooms_BoardName,TextBox,regex,"""boardBasisName"":""(.+?)""^^1"
ORFH_Rooms_InboundDepDate,TextBox,xpath,(//span[@class='dep-date-cap'])[1]
ORFH_Room_ChangeRoomSection,TextBox,xpath,//div[@id='tui_widget_multiCentre_bookflow_views_RoomOptions_0']
ORFH_Rooms_Continue,Button,xpath,//a[text()='CONTINUE']
ORFH_Extras_ChooseYourExtras,TextBox,xpath,//h1[text()='EXTRA OPTIONS']
ORFH_Extras_PerPrice,TextBox,xpath,(//span[@class='per-person-price'])[2]
ORFH_Extras_TotalPrice,TextBox,xpath,(//div[@class='total-price'])[2]
ORFH_Extras_AccomName,TextBox,xpath,"(//span[contains(@class,'t-rating rating')]/..)[1]"
ORFH_Extras_BoardName,TextBox,regex,"""boardBasisName"":""(.+?)""^^1"
ORFH_Extras_InboundDepDate,TextBox,xpath,(//span[@class='dep-date-cap'])[1]
ORFH_Extras_WorlCareFundSection,TextBox,xpath,"//h2[text()='World Care Fund'] | //h2[contains(text(),'CARE FOUNDATION')]"
ORFH_Extras_TravelInsuranceSection,TextBox,Xpath,".//*[@id='insurance-overview']//span[contains(text(),'TRAVEL')]"
ORFH_Extras_Transfer,TextBox,Xpath,//h2[text()='YOUR TRANSFERS']
ORFH_Extras_Continue,Button,xpath,//a[text()='CONTINUE']
ORFH_Passengers_passengerDetails,TextBox,xpath,//h1[text()='Passenger Details']
ORFH_Passengers_PerPrice,TextBox,xpath,//span[@class='per-person-price']
ORFH_Passengers_TotalPrice,TextBox,xpath,//div[@class='total-price']
ORFH_Passengers_AccomName,TextBox,xpath,"(//span[contains(@class,'t-rating rating')]/..)[1]"
ORFH_Passengers_BoardName,TextBox,regex,"""boardBasisName"":""(.+?)""^^1"
ORFH_Passengers_InboundDepDate,TextBox,xpath,(//span[@class='dep-date-cap'])[1]
ORFH_Passenger_ImpInfSection,Button,Xpath,.//*[@id='pax-form']/div[3]/div[1]/h2/span
ORFH_Payment_PaymentDetails,TextBox,xpath,"//h1[contains(text(),'Book your holiday')]"
ORFH_Payment_PassengerSection,TextBox,xpath,"//span[contains(text(),'Passengers')]"
ORFH_Payment_HolidaySummary,TextBox,Xpath,"//span[contains(text(),'holiday')]"
ORFH_Payment_CardDetails,TextBox,xpath,"//span[contains(text(),'card ')]"
ORFH_Payment_InboundDepDate,TextBox,xpath,//li[@class='itinerary depart']/span[1]
ORFH_Payment_LowDeposit,Button,xpath,//span[@for='initial']
ORFH_Payment_Deposit,Button,xpath,//span[@for='half']
ORFH_Passenger_DetailsView,Button,Xpath,.//*[@id='tui_widget_bookflow_views_AccordionResponsive_0']/div/div/div[1]
ORFH_LM_Account_Booking,Link,Xpath,.//*[@id='tui_widget_customerAcc_CustomerAccountMenu_0']/a/span
ORFH_LM_View_Edit,Link,Xpath,.//*[@id='tui_widget_customerAcc_CustomerAccountMenu_0']/div/div/ul/div/li[3]/a/span
ORFH_LM__MB_Date_Comp,Button,xpath,.//*[@id='tui_widget_searchpanel_views_AmendDepartureDate_0']
ORFH_LM__MB_Date,Button,xpath,.//*[@id='tui_widget_searchpanel_views_AmendDepartureDate_0']/div[1]
LM_Search_MonthB,Link,Xpath,.//*[@id='contentDiv']/div/div[1]/div/select
ORFH_LM__MB_BookingRef,TextBox,Xpath,.//*[@id='sec-code']
ORFH_LM__MB_LeadPassenger,TextBox,Xpath,.//*[@id='name']
ORFH_LM__MB_Submit,button,xpath,.//*[@id='submit-button']
ORFH_Home_Month,Button,xpath,"//div[contains(@class,'month-navigator')]/div"
ORFH_Home_MonthValue,Button,xpath,"//div[contains(@class,'month-navigator')]/div//option"
ORFH_Home_Date,Button,Xpath,"//div[@class='calendar']//table//td[contains(@class,'avail')]"
ORFH_LM__MB_PassengerName,textbox,xpath,.//*[@id='tui_widget_amend_views_popups_leadChangePopUp_0']/p[1]
ORFH_LM_MMB_AfterRecall,TextBox,Xpath,.//*[@id='content']/div/div[1]/div[1]/div/h1
ORFH_LM__ViewBooking_FlightDetail,Button,Xpath,.//*[@id='FLIGHT']
ORFH_LM__ViewBooking_LuggageAllowance,Button,Xpath,.//*[@id='tui_widget_amend_views_common_Accordion_1']/div/div[1]/i
ORFH_LM__ViewBooking_HotelDetail,Button,Xpath,.//*[@id='HOTEL']
ORFH_LM__ViewBooking_TransferOptions,Button,Xpath,.//*[@id='TRANSFER']
ORFH_LM_ViewBooking_ExtrasOptions,Button,Xpath,.//*[@id='EXTRAS']
ORFH_LM__ViewBooking_CoachTransfer,TextBox,xpath,.//*[@id='tui_widget_amend_views_extras_YourTransfers_0']/li[1]/span[2]
ORFH_LM_MMB_CancelBooking,Link,Xpath,.//*[@id='sidebar']/div[9]/ul/div/li/p[1]/a
ORFH_LM_MMB_CancelBooking_Continue,Button,Xpath,.//*[@id='tui_widget_amend_views_popups_CancellationPopUp_0']
ORFH_LM_MMB_CancelBooking_YesCancelBtn,Button,Xpath,".//a[contains(text(),'CANCEL THIS BOOKING')]"
ORFH_LM_MMB_CancelBooking_ConfirmText,TextBox,Xpath,.//*[@id='main']/div/div[1]/div[1]/h2
ORFH_LM__accnt&booking,Link,xpath,//*[@id='tui_widget_customerAcc_CustomerAccountMenu_0']/a/span
ORFH_LM__accnt&booking_dropdown,Link,xpath,//*[@id='tui_widget_customerAcc_CustomerAccountMenu_0']/div/div/ul/div/li[1]/a
LM_Accont&booking_allbooking,Link,xpath,".//*[@id='tui_widget_customerAcc_CustomerAccountMenu_0']/div[contains(@class,'travel')]//div//span[contains(text(),'Your booking')]"
ORFH_LM__Login_UserID,TextBox,xpath,.//*[@id='email']
ORFH_LM__Login_pwd,TextBox,xpath,.//*[@id='emptycheck']
ORFH_LM__Login_Submit,Button,Xpath,.//*[@id='tui_widget_customerAcc_SubmitForm_0']
ORFH_LM__Tab,Link,xpath,".//*[@id='the-main-menu']//a[contains(text(),'LAKES')]"
ORFH_BookingConfirmation_BookRefNum,TextBox,xpath,"//p[contains(text(),'Booking Reference Number')]//span"
ORFH_LM_Confirm_HotelName,TextBox,Xpath,.//*[@id='sidebar']/div/div[2]/p[1]
ORFH_LM_CA_BookingReference,TextBox,Xpath,.//*[@id='main']/div[1]/div[2]/div/div/p/span
ORFH_LM_Confim_DepartureDate,TextBox,Xpath,.//*[@id='sidebar']/div/div[2]/ul/li[4]
ORFH_FO_Home_Departing,Button,xpath,//div[@id='when']
ORFH_FO_HOME_Month,Button,css,div#tui_widget_datepicker_DateSelectOption_0 span.arrow
ORFH_FO_Home_MonthValue,TextBox,xpath,"//div[contains(@id,'tui_widget_ScrollPanel') and not(contains(@style,'display: none'))]//ul/li"
ORFH_FO_Home_Date,TextBox,css,table[class='datepickertable cal-table first-month'] td[class='datepicker-day date-text-indent cal-cell'] a
ORFH_FO_Home_Returning,Button,xpath,//div[@id='returnTravel']
ORFH_FO_Home_ReturningMonth,Button,xpath,//ul[@class='cal-nav cal-row arrivaldate-selector']//span[@class='arrow']
ORFH_FO_Home_ReturnDateVal,TextBox,css,table[class='datepickertable cal-table first-month'] td[class='arrival-datepicker-day date-text-indent arrival-cal-cell'] a
ORFH_FO_Search_FlightsOnDiffDate,Button,xpath,//table[@class="searchResultDeptDatesTable"]//span[@class="ppTxt"]
ORFH_FO_Search_perPriceText,TextBox,xpath,//span[@class='ppStyle pp-price']
ORFH_FO_Search_PerPrice,TextBox,xpath,(//span[@class="price-value pp-price"])[1]
ORFH_FO_Search_TotalPrice,TextBox,xpath,(//div[@class="ppStyleCnt"]/span[2])[1]
THFO_Search_OutBoundDepArpt,TextBox,xpath,(//li[@class='flightdeptTxt'])[1]
THFO_Search_OutBoundArrArpt,TextBox,xpath,(//li[@class='flightarrTxt'])[1]
THFO_Search_INBoundDepArpt,TextBox,xpath,(//li[@class='flightdeptTxt'])[2]
THFO_Search_INBoundArrArpt,TextBox,xpath,(//li[@class='flightarrTxt'])[2]
ORFH_FO_Search_Continue,TextBox,xpath,(//input[@value='CONTINUE'])[1]
ORFH_FO_Flights_BackToSearchText,TextBox,xpath,//div[@class="breadCrumbBack"]/a
ORFH_FO_Flights_PerPrice,TextBox,xpath,//span[@class='splitPrice']//span[@class='pp']
ORFH_FO_Flights_TotalPrice,TextBox,xpath,//span[@id="newprice"]//span[@class="number"]
THFO_Flights_OutBoundDepArpt,TextBox,xpath,(//div[@class='boarding-place fl'])[1]
THFO_Flights_OutBoundArrArpt,TextBox,xpath,(//div[@class='boarding-place fl'])[2]
THFO_Flights_INBoundDepArpt,TextBox,xpath,(//div[@class='boarding-place fl'])[3]
THFO_Flights_INBoundArrArpt,TextBox,xpath,(//div[@class='boarding-place fl'])[4]
ORFH_Flights_SeatSection,TextBox,xpath,//div[@id="tui_widget_booking_yourseats_view_seatChangeButtonToggler_0"]
ORFH_Flights_LuggageSection,TextBox,xpath,//div[@class="luggage-container"]
ORFH_Flights_SpecialAssistanceSection,TextBox,xpath,//div[@id="tui_widget_booking_specialAssistanceComponent_view_SpecialAssistance_0"]
ORFH_Flights_Continue,TextBox,xpath,//a[@id='tui_widget_booking_flightoptions_view_LastChanceAncillary_0']
FC_Flights_Thanks,TextBox,xpath,"//div[contains(@class,'popup extras-popup-overlay hide')]//p[@id='thanks']"
ORFH_Extras_WorlCareFundSection,TextBox,xpath,//div[@id="worldcarefund"]
ORFH_Extras_FlightSummary,Button,xpath,"//div[@id='summary-panel']//span[contains(text(),'FLIGHTS')]"
ORFH_FO_Extras_PerPrice,TextBox,xpath,//span[@class="splitPrice"]/span[@class='pp']
ORFH_FO_Extras_TotalPrice,TextBox,xpath,//span[@class="total"]
THFO_Extras_OutBoundDepArpt,TextBox,regex,"""departureAirport"".+?""name"":""(.+?)""^^2"
THFO_Extras_OutBoundArrArpt,TextBox,xpath,//ul[@class='flightInfo']//span[@class='to']
THFO_Extras_INBoundDepArpt,TextBox,xpath,//ul[@class="flightInfo"]/li[1]/span[2]
THFO_Extras_INBoundArrArpt,TextBox,regex,"""arrivalAirport"".+?""name"":""(.+?)""^^1"
ORFH_Extras_Continue,Button,xpath,//a[@data-componentid='COM_EXTRAS_CONTINUE']
TH_Extras_InsurancePopUp,Button,xpath,html//div[@id="checkBox-Overlay-insurance"]//a[@id="checkBoxArrangeInsurance"]
ORFH_FO_Passenger_WhosGngText,TextBox,xpath,//div[@id="passengerDetailsPanel"]//div[@class="sub-title"]
ORFH_FO_Passenger_PerPrice,TextBox,xpath,//span[@class="splitPrice"]//span[@class="pp"]
ORFH_FO_Passenger_TotalPrice,TextBox,xpath,//span[@class='total']
THFO_Passenger_Discount,TextBox,xpath,//span[@class="splitPrice"]//span[@class="discount"]
THFO_Passenger_InboundDepDate,TextBox,xpath,//li[@class="itinerary depart"]/span[1]
THFO_Passenger_INBoundDepArpt,TextBox,xpath,//ul[@class="flightInfo"]/li[1]/span[2]
THFO_Passenger_INBoundArrArpt,TextBox,xpath,//ul[@class="flightInfo"]/li[1]/span[1]
THFO_Passenger_OutBoundDepArpt,TextBox,xpath,//ul[@class="flightInfo"]/li[1]/span[1]
THFO_Passenger_OutBoundArrArpt,TextBox,xpath,//ul[@class="flightInfo"]/li[1]/span[2]
ORFH_FO_Flights_Thanks,Button,xpath,"//div[contains(@class,'popup extras-popup-overlay hide')]//p[@id='thanks']"
ORFH_FO_Extras_BackToYourFlights,TextBox,xpath,//div[@class="breadCrumbBack"]/a
FC_Passengers_Firstname,TextBox,xpath,"//form[@id='passengerDetailsform']//input['firstName'=substring(@name,string-length(@name)-string-length('firstName')+1)]"
FC_Passengers_Lastname,TextBox,xpath,"//form[@id='passengerDetailsform']//input['lastName'=substring(@name,string-length(@name)-string-length('lastName')+1)]"
ORFH_Passengers_HNO,TextBox,Xpath,.//input[@id='tui_widget_form_ValidationTextBox_1']
ORFH_Passengers_Address1,TextBox,Xpath,.//input[@id='tui_widget_form_ValidationTextBox_2']
FC_Passengers_Address2,TextBox,Xpath,.//input[@id='tui_widget_form_ValidationTextBox_3']
ORFH_Passengers_Town,TextBox,Xpath,.//input[@id='tui_widget_form_ValidationTextBox_4']
ORFH_Passengers_Country,TextBox,Xpath,.//input[@id='tui_widget_form_ValidationTextBox_5']
ORFH_Passengers_PostCode,TextBox,Xpath,.//input[@id='tui_widget_form_ValidationTextBox_6']
ORFH_Passengers_Telephone,TextBox,Xpath,.//input[@id='tui_widget_form_ValidationTextBox_7']
ORFH_Passengers_Mail,TextBox,Xpath,.//input[@id='tui_widget_form_ValidationTextBox_8']
ORFH_Passengers_ConfirmMail,TextBox,Xpath,.//input[@id='tui_widget_form_ValidationTextBox_9']
ORFH_Passengers_ConfirmCheckbox,Button,xpath,.//*[@id='impInfoCheckbox']
ORFH_Passengers_Continue,Button,xpath,//button[@id='passengerDetailsSubmitButton']
FC_Passengers_passengerDetails,TextBox,xpath,//div[@id="passengerDetailsPanel"]//div[@class="sub-title"]
FC_Payment_PageTitle,TextBox,xpath,"//*[contains(text(),'Book your')]"
ORFH_Passenger_ImpInfSection,TextBox,xpath,(//div[@class='item open'])[position()=last()]
ORFH_Passenger_DiscountSection,TextBox,xpath,//div[@id="tui_widget_expand_Expandable_0"]
FC_Payment_ImpInfoSection,TextBox,xpath,//div[@id="important_infosection"]
ORTH_PAX1_TitleDropDown,Link,Xpath,.//*[@id='tui_widget_form_SelectOption_0']/a
ORTH_PAX1_TitleDropDownValue,Link,Xpath,.//*[@id='falconflights']/body/div[2]/ul/li[2]
ORTH_PAX2_TitleDropDown,Link,Xpath,.//*[@id='tui_widget_form_SelectOption_3']/a
ORTH_PAX2_TitleDropDownValue,Link,Xpath,.//*[@id='falconflights']/body/div[5]/ul/li[2]
ORFH_LMFO_PaymentMonth,Button,Xpath,//*[@id="FieldExpiryDateMonth"]
ORFH_LMFO_PaymentYear,Button,Xpath,//*[@id="FieldExpiryDateYear"]
ORFH_LMFO_SecurityPin,TextBox,Xpath,//*[@id="cvv"]
ORFH_LMFO_PaymentConfirmation,Link,Xpath,//*[@id="tandc-info"]
ORFH_LMFO_PaymentConfirmation_Button,Button,Xpath,//*[@id="CheckoutPaymentDetailsForm"]/div/div[27]/button


TH_RespPassengers_Pax1TitleValue,TextBox,xpath,//select[@id='title0']/option |(//select[@role='select list'])[1]/option
TH_RespRetailPassengers_Pax1TitleValue,TextBox,xpath,"(//option[contains(text(),'Mr')]/../option)"
TH_RespPassengers_Pax2TitleValue,TextBox,xpath,( //select[@role='select list'])[3]/option
TH_RespPassengers_Pax3TitleValue,TextBox,xpath,//select[@id='title2']/option | ( //select[@role='select list'])[3]/option
TH_RespPassengers_Pax4TitleValue,TextBox,xpath,//select[@id='title3']/option | ( //select[@role='select list'])[4]/option
FH_RespPassengers_Pax2TitleValue,TextBox,xpath,//select[@id='title1']/option | ( //select[@role='select list'])[3]/option
FH_RespPassengers_Pax3TitleValue,TextBox,xpath,//select[@id='title2']/option | ( //select[@role='select list'])[4]/option
FH_RespPassengers_Pax4TitleValue,TextBox,xpath,//select[@id='title3']/option | ( //select[@role='select list'])[5]/option
TH_RespPassengers_Pax5TitleValue,TextBox,xpath,//select[@id='title4']/option
TH_RespPassengers_Pax6TitleValue,TextBox,xpath,//select[@id='title5']/option
TH_RespPassengers_Pax7TitleValue,TextBox,xpath,//select[@id='title6']/option
TH_RespPassengers_Pax8TitleValue,TextBox,xpath,//select[@id='title7']/option
TH_RespPassengers_Pax9TitleValue,TextBox,xpath,//select[@id='title8']/option
TH_RespPassengers_Pax1GenderValue,TextBox,xpath,//select[@id='gender0']/option
TH_RespPassengers_Pax2GenderValue,TextBox,xpath,//select[@id='gender1']/option
TH_RespPassengers_Pax3GenderValue,TextBox,xpath,//select[@id='gender2']/option
TH_RespPassengers_Pax4GenderValue,TextBox,xpath,//select[@id='gender3']/option
TH_RespPassengers_Pax5GenderValue,TextBox,xpath,//select[@id='gender4']/option
TH_RespPassengers_Pax6GenderValue,TextBox,xpath,//select[@id='gender5']/option
TH_RespPassengers_Pax7GenderValue,TextBox,xpath,//select[@id='gender6']/option
TH_RespPassengers_Pax8GenderValue,TextBox,xpath,//select[@id='gender7']/option
TH_RespPassengers_Pax9GenderValue,TextBox,xpath,//select[@id='gender8']/option
TH_RespPassengers_Pax1AgeGroup,TextBox,xpath,//select[@id='insurance0']/option
TH_RespPassengers_Pax2AgeGroup,TextBox,xpath,//select[@id='insurance1']/option
TH_RespPassengers_Pax3AgeGroup,TextBox,xpath,//select[@id='insurance2']/option
TH_RespPassengers_Pax4AgeGroup,TextBox,xpath,//select[@id='insurance3']/option
TH_RespPassengers_ConfirmCheckbox,CheckBox,xpath,.//*[@id='importantInformation__component']/div/div[3]/div/div[1]/label/span[1]
TH_RespPassengers_Continue,Button,xpath,.//*[@id='PassengerContinueButton__component']/div/div/div/div/button
TH_RespPassengers_Pax1DOBDD,TextBox,xpath,"//div[@aria-label='ADULT 1']//input[@placeholder='DD']|//input[contains(@placeholder,'DD')]"
TH_RespPassengers_Pax1DOBMM,TextBox,xpath,"//div[@aria-label='ADULT 1']//input[@placeholder='MM']|//input[contains(@placeholder,'MM')]"
TH_RespPassengers_Pax1DOBYYYY,TextBox,xpath,"//div[@aria-label='ADULT 1']//input[@placeholder='YYYY']|//input[contains(@placeholder,'YYYY')]"

TH_RespPassengers_PageTitle,TextBox,xpath,//h1
TH_RespPassengers_Pax1FirstName,TextBox,xpath,//input[@name='paxInfoFormBean[0].firstName']
TH_RespPassengers_Pax2FirstName,TextBox,xpath,//input[@name='paxInfoFormBean[1].firstName']
TH_RespPassengers_Pax3FirstName,TextBox,xpath,//input[@name='paxInfoFormBean[2].firstName']
TH_RespPassengers_Pax4FirstName,TextBox,xpath,//input[@name='paxInfoFormBean[3].firstName']
TH_RespPassengers_Pax5FirstName,TextBox,xpath,//input[@name='paxInfoFormBean[4].firstName']
TH_RespPassengers_Pax6FirstName,TextBox,xpath,//input[@name='paxInfoFormBean[5].firstName']
TH_RespPassengers_Pax7FirstName,TextBox,xpath,//input[@name='paxInfoFormBean[6].firstName']
TH_RespPassengers_Pax8FirstName,TextBox,xpath,//input[@name='paxInfoFormBean[7].firstName']
TH_RespPassengers_Pax9FirstName,TextBox,xpath,//input[@name='paxInfoFormBean[8].firstName']
TH_RespPassengers_Pax1Surname,TextBox,xpath,//input[@name='paxInfoFormBean[0].lastName']
TH_RespPassengers_Pax2Surname,TextBox,xpath,//input[@name='paxInfoFormBean[1].lastName']
TH_RespPassengers_Pax3Surname,TextBox,xpath,//input[@name='paxInfoFormBean[2].lastName']
TH_RespPassengers_Pax4Surname,TextBox,xpath,//input[@name='paxInfoFormBean[3].lastName']
TH_RespPassengers_Pax5Surname,TextBox,xpath,//input[@name='paxInfoFormBean[4].lastName']
TH_RespPassengers_Pax6Surname,TextBox,xpath,//input[@name='paxInfoFormBean[5].lastName']
TH_RespPassengers_Pax7Surname,TextBox,xpath,//input[@name='paxInfoFormBean[6].lastName']
TH_RespPassengers_Pax8Surname,TextBox,xpath,//input[@name='paxInfoFormBean[7].lastName']
TH_RespPassengers_Pax9Surname,TextBox,xpath,//input[@name='paxInfoFormBean[8].lastName']
TH_RespPassengers_HNO,TextBox,xpath,//input[@name='houseNum']
TH_RespPassengers_Address1,TextBox,xpath,//input[@name='address1']
TH_RespPassengers_Address2,TextBox,xpath,//input[@name='address2']
TH_RespPassengers_Town,TextBox,xpath,//input[@name='town']
TH_RespPassengers_County,TextBox,xpath,//input[@name='county']
TH_RespPassengers_PostCode,TextBox,xpath,//input[@name='postCode']
TH_RespPassengers_Telephone,TextBox,xpath,//input[@name='telephoneNum']
TH_RespPassengers_Mail,TextBox,xpath,//input[@name='email']
TH_RespPassengers_ConfirmMail,TextBox,xpath,//input[@name='confirmationEmail']
TH_RespPassengers_Pax1DOB,TextBox,xpath,//input[@id='dob0']
TH_RespPassengers_Pax2DOB,TextBox,xpath,//input[@id='dob1']
TH_RespPassengers_Pax3DOB,TextBox,xpath,//input[@id='dob2']
TH_RespPassengers_Pax4DOB,TextBox,xpath,//input[@id='dob3']
TH_RespPassengers_Pax5DOB,TextBox,xpath,//input[@id='dob4']
TH_RespPassengers_Pax6DOB,TextBox,xpath,//input[@id='dob5']
TH_RespPassengers_Pax7DOB,TextBox,xpath,//input[@id='dob6']
TH_RespPassengers_Pax8DOB,TextBox,xpath,//input[@id='dob7']
TH_RespHome_RandomMonthValue,TextBox,xpath,"//div[@class='month-navigator']//select//option[contains(@data-select-value,'2019')]|//div[contains(@class,'monthSelector')]//select/option[contains(@value,'2020')]"
TH_RespHome_RandomDate,TextBox,xpath,"//div[@class='month']//td[contains(@class,'avail  ')]|//div[@class='SelectDate__calendar']//td[contains(@class,'SelectDate__available')]"
TH_RespHome_Date,TextBox,xpath,"//div[@class='SelectDate__calendar']//td[contains(@class,'SelectDate') and contains(.,'Wed')]"

TH_RespPassengers_AddressManually,Button,xpath,"//span[contains(@class,'links__text')]"
TH_RespSearch_CookieClose,Button,xpath,//a[text()='Close']
OR_Accom_Page,TextBox,xpath,"//a[contains(text(),'Back to Search')]"

TH_Home_WhereToValue,TextBox,xpath,//input[@placeholder='Any Lakes & M...']
TH_Home_Autosuggest,Button,xpath,//div[@class='wrap suggestions']//ul/li[2]

ORTH_Passenger_TitleArrow,DropDown,xpath,//select[@role='select list']
TH_RespPassengers_EnterManually,Button,xpath,"//span[contains(.,'Enter address manually')]"
